{
  "name": "projectGenerator",
  "version": "0.0.1",
  "lockfileVersion": 1,
  "requires": true,
  "dependencies": {
    "ajv": {
      "version": "5.5.2",
      "resolved": "https://registry.npmjs.org/ajv/-/ajv-5.5.2.tgz",
      "integrity": "sha1-c7Xuyj+rZT49P5Qis0GtQiBdyWU=",
      "dev": true,
      "requires": {
        "co": "^4.6.0",
        "fast-deep-equal": "^1.0.0",
        "fast-json-stable-stringify": "^2.0.0",
        "json-schema-traverse": "^0.3.0"
      }
    },
    "array-find-index": {
      "version": "1.0.2",
      "resolved": "https://registry.npmjs.org/array-find-index/-/array-find-index-1.0.2.tgz",
      "integrity": "sha1-3wEKoSh+Fku9pvlyOwqWoexBh6E=",
      "dev": true
    },
    "asn1": {
      "version": "0.2.4",
      "resolved": "https://registry.npmjs.org/asn1/-/asn1-0.2.4.tgz",
      "integrity": "sha512-jxwzQpLQjSmWXgwaCZE9Nz+glAG01yF1QnWgbhGwHI5A6FRIEY6IVqtHhIepHqI7/kyEyQEagBC5mBEFlIYvdg==",
      "dev": true,
      "requires": {
        "safer-buffer": "~2.1.0"
      }
    },
    "assert-plus": {
      "version": "1.0.0",
      "resolved": "https://registry.npmjs.org/assert-plus/-/assert-plus-1.0.0.tgz",
      "integrity": "sha1-8S4PPF13sLHN2RRpQuTpbB5N1SU=",
      "dev": true
    },
    "asynckit": {
      "version": "0.4.0",
      "resolved": "https://registry.npmjs.org/asynckit/-/asynckit-0.4.0.tgz",
      "integrity": "sha1-x57Zf380y48robyXkLzDZkdLS3k=",
      "dev": true
    },
    "aws-sign2": {
      "version": "0.7.0",
      "resolved": "https://registry.npmjs.org/aws-sign2/-/aws-sign2-0.7.0.tgz",
      "integrity": "sha1-tG6JCTSpWR8tL2+G1+ap8bP+dqg=",
      "dev": true
    },
    "aws4": {
      "version": "1.8.0",
      "resolved": "https://registry.npmjs.org/aws4/-/aws4-1.8.0.tgz",
      "integrity": "sha512-ReZxvNHIOv88FlT7rxcXIIC0fPt4KZqZbOlivyWtXLt8ESx84zd3kMC6iK5jVeS2qt+g7ftS7ye4fi06X5rtRQ==",
      "dev": true
    },
    "balanced-match": {
      "version": "1.0.0",
      "resolved": "https://registry.npmjs.org/balanced-match/-/balanced-match-1.0.0.tgz",
      "integrity": "sha1-ibTRmasr7kneFk6gK4nORi1xt2c=",
      "dev": true
    },
    "bcrypt-pbkdf": {
      "version": "1.0.2",
      "resolved": "https://registry.npmjs.org/bcrypt-pbkdf/-/bcrypt-pbkdf-1.0.2.tgz",
      "integrity": "sha1-pDAdOJtqQ/m2f/PKEaP2Y342Dp4=",
      "dev": true,
      "requires": {
        "tweetnacl": "^0.14.3"
      }
    },
    "brace-expansion": {
      "version": "1.1.11",
      "resolved": "https://registry.npmjs.org/brace-expansion/-/brace-expansion-1.1.11.tgz",
      "integrity": "sha512-iCuPHDFgrHX7H2vEI/5xpz07zSHB00TpugqhmYtVmMO6518mCuRMoOYFldEBl0g187ufozdaHgWKcYFb61qGiA==",
      "dev": true,
      "requires": {
        "balanced-match": "^1.0.0",
        "concat-map": "0.0.1"
      }
    },
    "buffer-from": {
      "version": "1.1.1",
      "resolved": "https://registry.npmjs.org/buffer-from/-/buffer-from-1.1.1.tgz",
      "integrity": "sha512-MQcXEUbCKtEo7bhqEs6560Hyd4XaovZlO/k9V3hjVUF/zwW7KBVdSK4gIt/bzwS9MbR5qob+F5jusZsb0YQK2A==",
      "dev": true
    },
    "builtin-modules": {
      "version": "1.1.1",
      "resolved": "https://registry.npmjs.org/builtin-modules/-/builtin-modules-1.1.1.tgz",
      "integrity": "sha1-Jw8HbFpywC9bZaR9+Uxf46J4iS8=",
      "dev": true
    },
    "camelcase": {
      "version": "2.1.1",
      "resolved": "https://registry.npmjs.org/camelcase/-/camelcase-2.1.1.tgz",
      "integrity": "sha1-fB0W1nmhu+WcoCys7PsBHiAfWh8=",
      "dev": true
    },
    "camelcase-keys": {
      "version": "2.1.0",
      "resolved": "http://registry.npmjs.org/camelcase-keys/-/camelcase-keys-2.1.0.tgz",
      "integrity": "sha1-MIvur/3ygRkFHvodkyITyRuPkuc=",
      "dev": true,
      "requires": {
        "camelcase": "^2.0.0",
        "map-obj": "^1.0.0"
      }
    },
    "caseless": {
      "version": "0.12.0",
      "resolved": "https://registry.npmjs.org/caseless/-/caseless-0.12.0.tgz",
      "integrity": "sha1-G2gcIf+EAzyCZUMJBolCDRhxUdw=",
      "dev": true
    },
    "co": {
      "version": "4.6.0",
      "resolved": "https://registry.npmjs.org/co/-/co-4.6.0.tgz",
      "integrity": "sha1-bqa989hTrlTMuOR7+gvz+QMfsYQ=",
      "dev": true
    },
    "combined-stream": {
      "version": "1.0.7",
      "resolved": "https://registry.npmjs.org/combined-stream/-/combined-stream-1.0.7.tgz",
      "integrity": "sha512-brWl9y6vOB1xYPZcpZde3N9zDByXTosAeMDo4p1wzo6UMOX4vumB+TP1RZ76sfE6Md68Q0NJSrE/gbezd4Ul+w==",
      "dev": true,
      "requires": {
        "delayed-stream": "~1.0.0"
      }
    },
    "concat-map": {
      "version": "0.0.1",
      "resolved": "https://registry.npmjs.org/concat-map/-/concat-map-0.0.1.tgz",
      "integrity": "sha1-2Klr13/Wjfd5OnMDajug1UBdR3s=",
      "dev": true
    },
    "concat-stream": {
      "version": "1.6.2",
      "resolved": "https://registry.npmjs.org/concat-stream/-/concat-stream-1.6.2.tgz",
      "integrity": "sha512-27HBghJxjiZtIk3Ycvn/4kbJk/1uZuJFfuPEns6LaEvpvG1f0hTea8lilrouyo9mVc2GWdcEZ8OLoGmSADlrCw==",
      "dev": true,
      "requires": {
        "buffer-from": "^1.0.0",
        "inherits": "^2.0.3",
        "readable-stream": "^2.2.2",
        "typedarray": "^0.0.6"
      },
      "dependencies": {
        "isarray": {
          "version": "1.0.0",
          "resolved": "https://registry.npmjs.org/isarray/-/isarray-1.0.0.tgz",
          "integrity": "sha1-u5NdSFgsuhaMBoNJV6VKPgcSTxE=",
          "dev": true
        },
        "readable-stream": {
          "version": "2.3.6",
          "resolved": "http://registry.npmjs.org/readable-stream/-/readable-stream-2.3.6.tgz",
          "integrity": "sha512-tQtKA9WIAhBF3+VLAseyMqZeBjW0AHJoxOtYqSUZNJxauErmLbVm2FW1y+J/YA9dUrAC39ITejlZWhVIwawkKw==",
          "dev": true,
          "requires": {
            "core-util-is": "~1.0.0",
            "inherits": "~2.0.3",
            "isarray": "~1.0.0",
            "process-nextick-args": "~2.0.0",
            "safe-buffer": "~5.1.1",
            "string_decoder": "~1.1.1",
            "util-deprecate": "~1.0.1"
          }
        },
        "string_decoder": {
          "version": "1.1.1",
          "resolved": "https://registry.npmjs.org/string_decoder/-/string_decoder-1.1.1.tgz",
          "integrity": "sha512-n/ShnvDi6FHbbVfviro+WojiFzv+s8MPMHBczVePfUpDJLwoLT0ht1l4YwBCbi8pJAveEEdnkHyPyTP/mzRfwg==",
          "dev": true,
          "requires": {
            "safe-buffer": "~5.1.0"
          }
        }
      }
    },
    "core-util-is": {
      "version": "1.0.2",
      "resolved": "https://registry.npmjs.org/core-util-is/-/core-util-is-1.0.2.tgz",
      "integrity": "sha1-tf1UIgqivFq1eqtxQMlAdUUDwac=",
      "dev": true
    },
    "currently-unhandled": {
      "version": "0.4.1",
      "resolved": "https://registry.npmjs.org/currently-unhandled/-/currently-unhandled-0.4.1.tgz",
      "integrity": "sha1-mI3zP+qxke95mmE2nddsF635V+o=",
      "dev": true,
      "requires": {
        "array-find-index": "^1.0.1"
      }
    },
    "dashdash": {
      "version": "1.14.1",
      "resolved": "https://registry.npmjs.org/dashdash/-/dashdash-1.14.1.tgz",
      "integrity": "sha1-hTz6D3y+L+1d4gMmuN1YEDX24vA=",
      "dev": true,
      "requires": {
        "assert-plus": "^1.0.0"
      }
    },
    "debug": {
      "version": "2.6.9",
      "resolved": "https://registry.npmjs.org/debug/-/debug-2.6.9.tgz",
      "integrity": "sha512-bC7ElrdJaJnPbAP+1EotYvqZsb3ecl5wi6Bfi6BJTUcNowp6cvspg0jXznRTKDjm/E7AdgFBVeAPVMNcKGsHMA==",
      "dev": true,
      "requires": {
        "ms": "2.0.0"
      }
    },
    "decamelize": {
      "version": "1.2.0",
      "resolved": "https://registry.npmjs.org/decamelize/-/decamelize-1.2.0.tgz",
      "integrity": "sha1-9lNNFRSCabIDUue+4m9QH5oZEpA=",
      "dev": true
    },
    "deep-extend": {
      "version": "0.6.0",
      "resolved": "https://registry.npmjs.org/deep-extend/-/deep-extend-0.6.0.tgz",
      "integrity": "sha512-LOHxIOaPYdHlJRtCQfDIVZtfw/ufM8+rVj649RIHzcm/vGwQRXFt6OPqIFWsm2XEMrNIEtWR64sY1LEKD2vAOA==",
      "dev": true
    },
    "delayed-stream": {
      "version": "1.0.0",
      "resolved": "https://registry.npmjs.org/delayed-stream/-/delayed-stream-1.0.0.tgz",
      "integrity": "sha1-3zrhmayt+31ECqrgsp4icrJOxhk=",
      "dev": true
    },
    "ecc-jsbn": {
      "version": "0.1.2",
      "resolved": "https://registry.npmjs.org/ecc-jsbn/-/ecc-jsbn-0.1.2.tgz",
      "integrity": "sha1-OoOpBOVDUyh4dMVkt1SThoSamMk=",
      "dev": true,
      "requires": {
        "jsbn": "~0.1.0",
        "safer-buffer": "^2.1.0"
      }
    },
    "electron-debug": {
      "version": "0.1.1",
      "resolved": "https://registry.npmjs.org/electron-debug/-/electron-debug-0.1.1.tgz",
      "integrity": "sha1-nkexjSZIeUQOdyV9khzS+eCRE70="
    },
    "electron-download": {
      "version": "1.4.1",
      "resolved": "https://registry.npmjs.org/electron-download/-/electron-download-1.4.1.tgz",
      "integrity": "sha1-T5G6vypVbxReP7hT32qWwoJeGM0=",
      "dev": true,
      "requires": {
        "debug": "^2.2.0",
        "home-path": "^1.0.1",
        "minimist": "^1.2.0",
        "mkdirp": "^0.5.0",
        "mv": "^2.0.3",
        "nugget": "^1.5.1",
        "path-exists": "^1.0.0",
        "rc": "^1.1.2"
      }
    },
    "electron-packager": {
      "version": "5.1.0",
      "resolved": "https://registry.npmjs.org/electron-packager/-/electron-packager-5.1.0.tgz",
      "integrity": "sha1-yaEbOvTndwU/AV9YXcR+3y/sMsU=",
      "dev": true,
      "requires": {
        "asar": "^0.6.1",
        "electron-download": "^1.0.0",
        "extract-zip": "^1.0.3",
        "minimist": "^1.1.1",
        "mkdirp": "^0.5.0",
        "mv": "^2.0.3",
        "ncp": "^2.0.0",
        "plist": "^1.1.0",
        "rcedit": "^0.3.0",
        "rimraf": "^2.3.2",
        "run-series": "^1.1.1"
      },
      "dependencies": {
        "asar": {
          "version": "0.6.1",
          "resolved": "https://registry.npmjs.org/asar/-/asar-0.6.1.tgz",
          "integrity": "sha1-glZzipkxhX5tv0jSibeeBBGvqmo=",
          "dev": true,
          "requires": {
            "chromium-pickle-js": "0.1.0",
            "commander": "2.3.0",
            "cuint": "0.1.5",
            "glob": "^5.0.5",
            "minimatch": "2.0.4",
            "mkdirp": "^0.5.0"
          },
          "dependencies": {
            "chromium-pickle-js": {
              "version": "0.1.0",
              "resolved": "https://registry.npmjs.org/chromium-pickle-js/-/chromium-pickle-js-0.1.0.tgz",
              "integrity": "sha1-HUixB9ghJqLz4hHC6iX4A7pVGyE=",
              "dev": true
            },
            "commander": {
              "version": "2.3.0",
              "resolved": "https://registry.npmjs.org/commander/-/commander-2.3.0.tgz",
              "integrity": "sha1-/UMOiJgy7DU7ms0d4hfBHLPu+HM=",
              "dev": true
            },
            "cuint": {
              "version": "0.1.5",
              "resolved": "https://registry.npmjs.org/cuint/-/cuint-0.1.5.tgz",
              "integrity": "sha1-uEixhGbz8YD5bR624HzLfs8Sai4=",
              "dev": true
            },
            "glob": {
              "version": "5.0.14",
              "resolved": "https://registry.npmjs.org/glob/-/glob-5.0.14.tgz",
              "integrity": "sha1-qBHVB6y2BUQe3WzSYio8bwbMAOE=",
              "dev": true,
              "requires": {
                "inflight": "^1.0.4",
                "inherits": "2",
                "minimatch": "^2.0.1",
                "once": "^1.3.0",
                "path-is-absolute": "^1.0.0"
              },
              "dependencies": {
                "inflight": {
                  "version": "1.0.4",
                  "resolved": "https://registry.npmjs.org/inflight/-/inflight-1.0.4.tgz",
                  "integrity": "sha1-bLtFIevVHODsCpNr/XZX736bFyo=",
                  "dev": true,
                  "requires": {
                    "once": "^1.3.0",
                    "wrappy": "1"
                  },
                  "dependencies": {
                    "wrappy": {
                      "version": "1.0.1",
                      "resolved": "https://registry.npmjs.org/wrappy/-/wrappy-1.0.1.tgz",
                      "integrity": "sha1-HmWWmWXMvC20VIxrhKbyxa7dRzk=",
                      "dev": true
                    }
                  }
                },
                "inherits": {
                  "version": "2.0.1",
                  "resolved": "https://registry.npmjs.org/inherits/-/inherits-2.0.1.tgz",
                  "integrity": "sha1-sX0I0ya0Qj5Wjv9xn5GwscvfafE=",
                  "dev": true
                },
                "once": {
                  "version": "1.3.2",
                  "resolved": "https://registry.npmjs.org/once/-/once-1.3.2.tgz",
                  "integrity": "sha1-2P7sqTsDnsHc3ud0HJK9rF4oCBs=",
                  "dev": true,
                  "requires": {
                    "wrappy": "1"
                  },
                  "dependencies": {
                    "wrappy": {
                      "version": "1.0.1",
                      "resolved": "https://registry.npmjs.org/wrappy/-/wrappy-1.0.1.tgz",
                      "integrity": "sha1-HmWWmWXMvC20VIxrhKbyxa7dRzk=",
                      "dev": true
                    }
                  }
                },
                "path-is-absolute": {
                  "version": "1.0.0",
                  "resolved": "https://registry.npmjs.org/path-is-absolute/-/path-is-absolute-1.0.0.tgz",
                  "integrity": "sha1-Jj2tpmqz8vsQv3+dJN2PPlcO+RI=",
                  "dev": true
                }
              }
            },
            "minimatch": {
              "version": "2.0.4",
              "resolved": "https://registry.npmjs.org/minimatch/-/minimatch-2.0.4.tgz",
              "integrity": "sha1-g76hFYA+egl6eAIkJyh+23Yvr+0=",
              "dev": true,
              "requires": {
                "brace-expansion": "^1.0.0"
              },
              "dependencies": {
                "brace-expansion": {
                  "version": "1.1.0",
                  "resolved": "https://registry.npmjs.org/brace-expansion/-/brace-expansion-1.1.0.tgz",
                  "integrity": "sha1-ybfQPAPze8cEvhAOUitA249s/Nk=",
                  "dev": true,
                  "requires": {
                    "balanced-match": "^0.2.0",
                    "concat-map": "0.0.1"
                  },
                  "dependencies": {
                    "balanced-match": {
                      "version": "0.2.0",
                      "resolved": "https://registry.npmjs.org/balanced-match/-/balanced-match-0.2.0.tgz",
                      "integrity": "sha1-OPZzDAOqttXtu1K9k0iF51bXFnQ=",
                      "dev": true
                    },
                    "concat-map": {
                      "version": "0.0.1",
                      "resolved": "https://registry.npmjs.org/concat-map/-/concat-map-0.0.1.tgz",
                      "integrity": "sha1-2Klr13/Wjfd5OnMDajug1UBdR3s=",
                      "dev": true
                    }
                  }
                }
              }
            }
          }
        },
        "electron-download": {
          "version": "1.1.0",
          "resolved": "https://registry.npmjs.org/electron-download/-/electron-download-1.1.0.tgz",
          "integrity": "sha1-ObFVtj6yDKdXEdmMyyNknIpMSB0=",
          "dev": true,
          "requires": {
            "debug": "^2.2.0",
            "home-path": "^0.1.1",
            "minimist": "^1.2.0",
            "mkdirp": "^0.5.0",
            "mv": "^2.0.3",
            "nugget": "^1.5.1",
            "path-exists": "^1.0.0"
          },
          "dependencies": {
            "debug": {
              "version": "2.2.0",
              "resolved": "https://registry.npmjs.org/debug/-/debug-2.2.0.tgz",
              "integrity": "sha1-+HBX6ZWxofauaklgZkE3vFbwOdo=",
              "dev": true,
              "requires": {
                "ms": "0.7.1"
              },
              "dependencies": {
                "ms": {
                  "version": "0.7.1",
                  "resolved": "https://registry.npmjs.org/ms/-/ms-0.7.1.tgz",
                  "integrity": "sha1-nNE8A62/8ltl7/3nzoZO6VIBcJg=",
                  "dev": true
                }
              }
            },
            "home-path": {
              "version": "0.1.2",
              "resolved": "https://registry.npmjs.org/home-path/-/home-path-0.1.2.tgz",
              "integrity": "sha1-PbJsojrcFE/uqPHi18j2yJDL/io=",
              "dev": true
            },
            "nugget": {
              "version": "1.5.4",
              "resolved": "https://registry.npmjs.org/nugget/-/nugget-1.5.4.tgz",
              "integrity": "sha1-ca5jDWYwo4WsJoHksDA54I4SgfI=",
              "dev": true,
              "requires": {
                "debug": "^2.1.3",
                "minimist": "^1.1.0",
                "pretty-bytes": "^1.0.2",
                "progress-stream": "^1.1.0",
                "request": "^2.45.0",
                "single-line-log": "^0.4.1",
                "throttleit": "0.0.2"
              },
              "dependencies": {
                "pretty-bytes": {
                  "version": "1.0.4",
                  "resolved": "https://registry.npmjs.org/pretty-bytes/-/pretty-bytes-1.0.4.tgz",
                  "integrity": "sha1-CiLoIQYJrTVUL4yNXSFZr/B1HIQ=",
                  "dev": true,
                  "requires": {
                    "get-stdin": "^4.0.1",
                    "meow": "^3.1.0"
                  },
                  "dependencies": {
                    "get-stdin": {
                      "version": "4.0.1",
                      "resolved": "https://registry.npmjs.org/get-stdin/-/get-stdin-4.0.1.tgz",
                      "integrity": "sha1-uWjGsKBDhDJJAui/Gl3zJXmkUP4=",
                      "dev": true
                    },
                    "meow": {
                      "version": "3.3.0",
                      "resolved": "https://registry.npmjs.org/meow/-/meow-3.3.0.tgz",
                      "integrity": "sha1-+Hd/0Ntn9z0d4b7uCMl8hmXvxu0=",
                      "dev": true,
                      "requires": {
                        "camelcase-keys": "^1.0.0",
                        "indent-string": "^1.1.0",
                        "minimist": "^1.1.0",
                        "object-assign": "^3.0.0"
                      },
                      "dependencies": {
                        "camelcase-keys": {
                          "version": "1.0.0",
                          "resolved": "https://registry.npmjs.org/camelcase-keys/-/camelcase-keys-1.0.0.tgz",
                          "integrity": "sha1-vRoRv5sxoc5JNJOpMN4aC69K1+w=",
                          "dev": true,
                          "requires": {
                            "camelcase": "^1.0.1",
                            "map-obj": "^1.0.0"
                          },
                          "dependencies": {
                            "camelcase": {
                              "version": "1.2.1",
                              "resolved": "https://registry.npmjs.org/camelcase/-/camelcase-1.2.1.tgz",
                              "integrity": "sha1-m7UwTS4LVmmLLHWLCKPqqdqlijk=",
                              "dev": true
                            },
                            "map-obj": {
                              "version": "1.0.1",
                              "resolved": "https://registry.npmjs.org/map-obj/-/map-obj-1.0.1.tgz",
                              "integrity": "sha1-2TPOuSBdgr3PSIb2dCvcK03qFG0=",
                              "dev": true
                            }
                          }
                        },
                        "indent-string": {
                          "version": "1.2.2",
                          "resolved": "https://registry.npmjs.org/indent-string/-/indent-string-1.2.2.tgz",
                          "integrity": "sha1-25m8xYPrarux5I3LsZmamGBBy2s=",
                          "dev": true,
                          "requires": {
                            "get-stdin": "^4.0.1",
                            "minimist": "^1.1.0",
                            "repeating": "^1.1.0"
                          },
                          "dependencies": {
                            "repeating": {
                              "version": "1.1.3",
                              "resolved": "https://registry.npmjs.org/repeating/-/repeating-1.1.3.tgz",
                              "integrity": "sha1-PUEUIYh3U3SU+X93+Xhfq4EPpKw=",
                              "dev": true,
                              "requires": {
                                "is-finite": "^1.0.0"
                              },
                              "dependencies": {
                                "is-finite": {
                                  "version": "1.0.1",
                                  "resolved": "https://registry.npmjs.org/is-finite/-/is-finite-1.0.1.tgz",
                                  "integrity": "sha1-ZDhgPq6+J5OUj/SkJi7I2z1iWXs=",
                                  "dev": true,
                                  "requires": {
                                    "number-is-nan": "^1.0.0"
                                  },
                                  "dependencies": {
                                    "number-is-nan": {
                                      "version": "1.0.0",
                                      "resolved": "https://registry.npmjs.org/number-is-nan/-/number-is-nan-1.0.0.tgz",
                                      "integrity": "sha1-wCD1KcUoKt/dIz2R1LGBw9aG3Es=",
                                      "dev": true
                                    }
                                  }
                                }
                              }
                            }
                          }
                        },
                        "object-assign": {
                          "version": "3.0.0",
                          "resolved": "https://registry.npmjs.org/object-assign/-/object-assign-3.0.0.tgz",
                          "integrity": "sha1-m+3VygiXlJvKR+f/QIBi1Un1h/I=",
                          "dev": true
                        }
                      }
                    }
                  }
                },
                "progress-stream": {
                  "version": "1.1.1",
                  "resolved": "https://registry.npmjs.org/progress-stream/-/progress-stream-1.1.1.tgz",
                  "integrity": "sha1-nsvxh5MsSUHVUCGRkNdN7ArEX1Q=",
                  "dev": true,
                  "requires": {
                    "single-line-log": "~0.3.1",
                    "speedometer": "~0.1.2",
                    "through2": "~0.2.3"
                  },
                  "dependencies": {
                    "single-line-log": {
                      "version": "0.3.1",
                      "resolved": "https://registry.npmjs.org/single-line-log/-/single-line-log-0.3.1.tgz",
                      "integrity": "sha1-p61lB/IYzl3+FsS/LWWSRkGeegY=",
                      "dev": true
                    },
                    "speedometer": {
                      "version": "0.1.4",
                      "resolved": "https://registry.npmjs.org/speedometer/-/speedometer-0.1.4.tgz",
                      "integrity": "sha1-mHbb0qFp0xFUAtSObqYynIgWpQ0=",
                      "dev": true
                    },
                    "through2": {
                      "version": "0.2.3",
                      "resolved": "https://registry.npmjs.org/through2/-/through2-0.2.3.tgz",
                      "integrity": "sha1-6zKE2k6jEbbMis42U3SKUqvyWj8=",
                      "dev": true,
                      "requires": {
                        "readable-stream": "~1.1.9",
                        "xtend": "~2.1.1"
                      },
                      "dependencies": {
                        "readable-stream": {
                          "version": "1.1.13",
                          "resolved": "https://registry.npmjs.org/readable-stream/-/readable-stream-1.1.13.tgz",
                          "integrity": "sha1-9u73ZPUUyJ4rniMUanW6EGdW0j4=",
                          "dev": true,
                          "requires": {
                            "core-util-is": "~1.0.0",
                            "inherits": "~2.0.1",
                            "isarray": "0.0.1",
                            "string_decoder": "~0.10.x"
                          },
                          "dependencies": {
                            "core-util-is": {
                              "version": "1.0.1",
                              "resolved": "https://registry.npmjs.org/core-util-is/-/core-util-is-1.0.1.tgz",
                              "integrity": "sha1-awcIWu+aPMrG7lO/nT3wwVIaVTg=",
                              "dev": true
                            },
                            "inherits": {
                              "version": "2.0.1",
                              "resolved": "https://registry.npmjs.org/inherits/-/inherits-2.0.1.tgz",
                              "integrity": "sha1-sX0I0ya0Qj5Wjv9xn5GwscvfafE=",
                              "dev": true
                            },
                            "isarray": {
                              "version": "0.0.1",
                              "resolved": "https://registry.npmjs.org/isarray/-/isarray-0.0.1.tgz",
                              "integrity": "sha1-ihis/Kmo9Bd+Cav8YDiTmwXR7t8=",
                              "dev": true
                            },
                            "string_decoder": {
                              "version": "0.10.31",
                              "resolved": "https://registry.npmjs.org/string_decoder/-/string_decoder-0.10.31.tgz",
                              "integrity": "sha1-YuIDvEF2bGwoyfyEMB2rHFMQ+pQ=",
                              "dev": true
                            }
                          }
                        },
                        "xtend": {
                          "version": "2.1.2",
                          "resolved": "https://registry.npmjs.org/xtend/-/xtend-2.1.2.tgz",
                          "integrity": "sha1-bv7MKk2tjmlixJAbM3znuoe10os=",
                          "dev": true,
                          "requires": {
                            "object-keys": "~0.4.0"
                          },
                          "dependencies": {
                            "object-keys": {
                              "version": "0.4.0",
                              "resolved": "https://registry.npmjs.org/object-keys/-/object-keys-0.4.0.tgz",
                              "integrity": "sha1-KKaq50KN0sOpLz2V8hM13SBOAzY=",
                              "dev": true
                            }
                          }
                        }
                      }
                    }
                  }
                },
                "request": {
                  "version": "2.61.0",
                  "resolved": "https://registry.npmjs.org/request/-/request-2.61.0.tgz",
                  "integrity": "sha1-aXPLKslIhfAmk/VU7sZEgdYBP58=",
                  "dev": true,
                  "requires": {
                    "aws-sign2": "~0.5.0",
                    "bl": "~1.0.0",
                    "caseless": "~0.11.0",
                    "combined-stream": "~1.0.1",
                    "extend": "~3.0.0",
                    "forever-agent": "~0.6.0",
                    "form-data": "~1.0.0-rc1",
                    "har-validator": "^1.6.1",
                    "hawk": "~3.1.0",
                    "http-signature": "~0.11.0",
                    "isstream": "~0.1.1",
                    "json-stringify-safe": "~5.0.0",
                    "mime-types": "~2.1.2",
                    "node-uuid": "~1.4.0",
                    "oauth-sign": "~0.8.0",
                    "qs": "~4.0.0",
                    "stringstream": "~0.0.4",
                    "tough-cookie": ">=0.12.0",
                    "tunnel-agent": "~0.4.0"
                  },
                  "dependencies": {
                    "aws-sign2": {
                      "version": "0.5.0",
                      "resolved": "https://registry.npmjs.org/aws-sign2/-/aws-sign2-0.5.0.tgz",
                      "integrity": "sha1-xXED96F/wDfwLXwuZLYC6iI/fWM=",
                      "dev": true
                    },
                    "bl": {
                      "version": "1.0.0",
                      "resolved": "https://registry.npmjs.org/bl/-/bl-1.0.0.tgz",
                      "integrity": "sha1-ramoqJptesYIYvfex9sgeHPgw/U=",
                      "dev": true,
                      "requires": {
                        "readable-stream": "~2.0.0"
                      },
                      "dependencies": {
                        "readable-stream": {
                          "version": "2.0.2",
                          "resolved": "https://registry.npmjs.org/readable-stream/-/readable-stream-2.0.2.tgz",
                          "integrity": "sha1-vsgb6ujPRVFovC5bKzH1vPrtmxs=",
                          "dev": true,
                          "requires": {
                            "core-util-is": "~1.0.0",
                            "inherits": "~2.0.1",
                            "isarray": "0.0.1",
                            "process-nextick-args": "~1.0.0",
                            "string_decoder": "~0.10.x",
                            "util-deprecate": "~1.0.1"
                          },
                          "dependencies": {
                            "core-util-is": {
                              "version": "1.0.1",
                              "resolved": "https://registry.npmjs.org/core-util-is/-/core-util-is-1.0.1.tgz",
                              "integrity": "sha1-awcIWu+aPMrG7lO/nT3wwVIaVTg=",
                              "dev": true
                            },
                            "inherits": {
                              "version": "2.0.1",
                              "resolved": "https://registry.npmjs.org/inherits/-/inherits-2.0.1.tgz",
                              "integrity": "sha1-sX0I0ya0Qj5Wjv9xn5GwscvfafE=",
                              "dev": true
                            },
                            "isarray": {
                              "version": "0.0.1",
                              "resolved": "https://registry.npmjs.org/isarray/-/isarray-0.0.1.tgz",
                              "integrity": "sha1-ihis/Kmo9Bd+Cav8YDiTmwXR7t8=",
                              "dev": true
                            },
                            "process-nextick-args": {
                              "version": "1.0.3",
                              "resolved": "https://registry.npmjs.org/process-nextick-args/-/process-nextick-args-1.0.3.tgz",
                              "integrity": "sha1-4nLu2CXV6fTqdNjXOx/jEcO+tjA=",
                              "dev": true
                            },
                            "string_decoder": {
                              "version": "0.10.31",
                              "resolved": "https://registry.npmjs.org/string_decoder/-/string_decoder-0.10.31.tgz",
                              "integrity": "sha1-YuIDvEF2bGwoyfyEMB2rHFMQ+pQ=",
                              "dev": true
                            },
                            "util-deprecate": {
                              "version": "1.0.1",
                              "resolved": "https://registry.npmjs.org/util-deprecate/-/util-deprecate-1.0.1.tgz",
                              "integrity": "sha1-NVaj0TxMaqeYPX4kJUeBlxmbeIE=",
                              "dev": true
                            }
                          }
                        }
                      }
                    },
                    "caseless": {
                      "version": "0.11.0",
                      "resolved": "https://registry.npmjs.org/caseless/-/caseless-0.11.0.tgz",
                      "integrity": "sha1-cVuW6phBWTzDMGeSP17GDr2k99c=",
                      "dev": true
                    },
                    "combined-stream": {
                      "version": "1.0.5",
                      "resolved": "https://registry.npmjs.org/combined-stream/-/combined-stream-1.0.5.tgz",
                      "integrity": "sha1-k4NwpXtKUd6ix3wV1cX9+JUWQAk=",
                      "dev": true,
                      "requires": {
                        "delayed-stream": "~1.0.0"
                      },
                      "dependencies": {
                        "delayed-stream": {
                          "version": "1.0.0",
                          "resolved": "https://registry.npmjs.org/delayed-stream/-/delayed-stream-1.0.0.tgz",
                          "integrity": "sha1-3zrhmayt+31ECqrgsp4icrJOxhk=",
                          "dev": true
                        }
                      }
                    },
                    "extend": {
                      "version": "3.0.0",
                      "resolved": "https://registry.npmjs.org/extend/-/extend-3.0.0.tgz",
                      "integrity": "sha1-WkdDU7nzNT3dgXbf03uRyDpG8dQ=",
                      "dev": true
                    },
                    "forever-agent": {
                      "version": "0.6.1",
                      "resolved": "https://registry.npmjs.org/forever-agent/-/forever-agent-0.6.1.tgz",
                      "integrity": "sha1-+8cfDEGt6zf5bFd60e1C2P2sypE=",
                      "dev": true
                    },
                    "form-data": {
                      "version": "1.0.0-rc3",
                      "resolved": "https://registry.npmjs.org/form-data/-/form-data-1.0.0-rc3.tgz",
                      "integrity": "sha1-01vGLn+8KTeuePlIqqDTjZBgdXc=",
                      "dev": true,
                      "requires": {
                        "async": "^1.4.0",
                        "combined-stream": "^1.0.5",
                        "mime-types": "^2.1.3"
                      },
                      "dependencies": {
                        "async": {
                          "version": "1.4.2",
                          "resolved": "https://registry.npmjs.org/async/-/async-1.4.2.tgz",
                          "integrity": "sha1-bJ7csRztTw3S8tQNsNSaEJwIiqs=",
                          "dev": true
                        }
                      }
                    },
                    "har-validator": {
                      "version": "1.8.0",
                      "resolved": "https://registry.npmjs.org/har-validator/-/har-validator-1.8.0.tgz",
                      "integrity": "sha1-2DhCsOtMQ1lgrrEIoGejqpTA7rI=",
                      "dev": true,
                      "requires": {
                        "bluebird": "^2.9.30",
                        "chalk": "^1.0.0",
                        "commander": "^2.8.1",
                        "is-my-json-valid": "^2.12.0"
                      },
                      "dependencies": {
                        "bluebird": {
                          "version": "2.10.0",
                          "resolved": "https://registry.npmjs.org/bluebird/-/bluebird-2.10.0.tgz",
                          "integrity": "sha1-cB9QLS0jZWDfeSwAj+Gzs3k8lfQ=",
                          "dev": true
                        },
                        "chalk": {
                          "version": "1.1.1",
                          "resolved": "https://registry.npmjs.org/chalk/-/chalk-1.1.1.tgz",
                          "integrity": "sha1-UJr7ZwZudJn36zU1x3RFdyri0Bk=",
                          "dev": true,
                          "requires": {
                            "ansi-styles": "^2.1.0",
                            "escape-string-regexp": "^1.0.2",
                            "has-ansi": "^2.0.0",
                            "strip-ansi": "^3.0.0",
                            "supports-color": "^2.0.0"
                          },
                          "dependencies": {
                            "ansi-styles": {
                              "version": "2.1.0",
                              "resolved": "https://registry.npmjs.org/ansi-styles/-/ansi-styles-2.1.0.tgz",
                              "integrity": "sha1-mQ90cUaSe1Wakyv5KVkWPWDA0OI=",
                              "dev": true
                            },
                            "escape-string-regexp": {
                              "version": "1.0.3",
                              "resolved": "https://registry.npmjs.org/escape-string-regexp/-/escape-string-regexp-1.0.3.tgz",
                              "integrity": "sha1-ni2LJbwlVcMzZyN1DgPwmcJzW7U=",
                              "dev": true
                            },
                            "has-ansi": {
                              "version": "2.0.0",
                              "resolved": "https://registry.npmjs.org/has-ansi/-/has-ansi-2.0.0.tgz",
                              "integrity": "sha1-NPUEnOHs3ysGSa8+8k5F7TVBbZE=",
                              "dev": true,
                              "requires": {
                                "ansi-regex": "^2.0.0"
                              },
                              "dependencies": {
                                "ansi-regex": {
                                  "version": "2.0.0",
                                  "resolved": "https://registry.npmjs.org/ansi-regex/-/ansi-regex-2.0.0.tgz",
                                  "integrity": "sha1-xQYbbg74qBd15Q9dZhUb9r83EQc=",
                                  "dev": true
                                }
                              }
                            },
                            "strip-ansi": {
                              "version": "3.0.0",
                              "resolved": "https://registry.npmjs.org/strip-ansi/-/strip-ansi-3.0.0.tgz",
                              "integrity": "sha1-dRC2ZVZ8qRTMtdfgcnY6yWi+NyQ=",
                              "dev": true,
                              "requires": {
                                "ansi-regex": "^2.0.0"
                              },
                              "dependencies": {
                                "ansi-regex": {
                                  "version": "2.0.0",
                                  "resolved": "https://registry.npmjs.org/ansi-regex/-/ansi-regex-2.0.0.tgz",
                                  "integrity": "sha1-xQYbbg74qBd15Q9dZhUb9r83EQc=",
                                  "dev": true
                                }
                              }
                            },
                            "supports-color": {
                              "version": "2.0.0",
                              "resolved": "https://registry.npmjs.org/supports-color/-/supports-color-2.0.0.tgz",
                              "integrity": "sha1-U10EXOa2Nj+kARcIRimZXp3zJMc=",
                              "dev": true
                            }
                          }
                        },
                        "commander": {
                          "version": "2.8.1",
                          "resolved": "https://registry.npmjs.org/commander/-/commander-2.8.1.tgz",
                          "integrity": "sha1-Br42f+v9oMMwqh4qBy09yXYkJdQ=",
                          "dev": true,
                          "requires": {
                            "graceful-readlink": ">= 1.0.0"
                          },
                          "dependencies": {
                            "graceful-readlink": {
                              "version": "1.0.1",
                              "resolved": "https://registry.npmjs.org/graceful-readlink/-/graceful-readlink-1.0.1.tgz",
                              "integrity": "sha1-TK+tdrxi8C+gObL5Tpo906ORpyU=",
                              "dev": true
                            }
                          }
                        },
                        "is-my-json-valid": {
                          "version": "2.12.2",
                          "resolved": "https://registry.npmjs.org/is-my-json-valid/-/is-my-json-valid-2.12.2.tgz",
                          "integrity": "sha1-DWWFkxjIRs46E0QC/T+8UEJyzMk=",
                          "dev": true,
                          "requires": {
                            "generate-function": "^2.0.0",
                            "generate-object-property": "^1.1.0",
                            "jsonpointer": "2.0.0",
                            "xtend": "^4.0.0"
                          },
                          "dependencies": {
                            "generate-function": {
                              "version": "2.0.0",
                              "resolved": "https://registry.npmjs.org/generate-function/-/generate-function-2.0.0.tgz",
                              "integrity": "sha1-aFj+fAlpt9TpCTM3ZHrHn2DfvnQ=",
                              "dev": true
                            },
                            "generate-object-property": {
                              "version": "1.2.0",
                              "resolved": "https://registry.npmjs.org/generate-object-property/-/generate-object-property-1.2.0.tgz",
                              "integrity": "sha1-nA4cQDCM6AT0eDYYuTf6iPmdUNA=",
                              "dev": true,
                              "requires": {
                                "is-property": "^1.0.0"
                              },
                              "dependencies": {
                                "is-property": {
                                  "version": "1.0.2",
                                  "resolved": "https://registry.npmjs.org/is-property/-/is-property-1.0.2.tgz",
                                  "integrity": "sha1-V/4cTkhHTt1lsJkR8msc1Ald2oQ=",
                                  "dev": true
                                }
                              }
                            },
                            "jsonpointer": {
                              "version": "2.0.0",
                              "resolved": "https://registry.npmjs.org/jsonpointer/-/jsonpointer-2.0.0.tgz",
                              "integrity": "sha1-OvHdIP6FRjkQ1GmjheMwF9KgMNk=",
                              "dev": true
                            },
                            "xtend": {
                              "version": "4.0.0",
                              "resolved": "https://registry.npmjs.org/xtend/-/xtend-4.0.0.tgz",
                              "integrity": "sha1-i8Nv+Hrtvnzp6vC8o2sjVKdDhA8=",
                              "dev": true
                            }
                          }
                        }
                      }
                    },
                    "hawk": {
                      "version": "3.1.0",
                      "resolved": "https://registry.npmjs.org/hawk/-/hawk-3.1.0.tgz",
                      "integrity": "sha1-ihOuGZd+xgdgLz8Ln9Z28Yw4TkQ=",
                      "dev": true,
                      "requires": {
                        "boom": "^2.8.x",
                        "cryptiles": "2.x.x",
                        "hoek": "2.x.x",
                        "sntp": "1.x.x"
                      },
                      "dependencies": {
                        "boom": {
                          "version": "2.8.0",
                          "resolved": "https://registry.npmjs.org/boom/-/boom-2.8.0.tgz",
                          "integrity": "sha1-MXvf1HAY/n3Xmw6dpz7+JEEZ/fE=",
                          "dev": true,
                          "requires": {
                            "hoek": "2.x.x"
                          }
                        },
                        "cryptiles": {
                          "version": "2.0.5",
                          "resolved": "https://registry.npmjs.org/cryptiles/-/cryptiles-2.0.5.tgz",
                          "integrity": "sha1-O9/s3GCBR8HGcgL6KR59ylnqo7g=",
                          "dev": true,
                          "requires": {
                            "boom": "2.x.x"
                          }
                        },
                        "hoek": {
                          "version": "2.15.0",
                          "resolved": "https://registry.npmjs.org/hoek/-/hoek-2.15.0.tgz",
                          "integrity": "sha1-cStlkd6yLigNeQ3l/gOOLBVfdOc=",
                          "dev": true
                        },
                        "sntp": {
                          "version": "1.0.9",
                          "resolved": "https://registry.npmjs.org/sntp/-/sntp-1.0.9.tgz",
                          "integrity": "sha1-ZUEYTMkK7qbG57NeJlkIJEPGYZg=",
                          "dev": true,
                          "requires": {
                            "hoek": "2.x.x"
                          }
                        }
                      }
                    },
                    "http-signature": {
                      "version": "0.11.0",
                      "resolved": "https://registry.npmjs.org/http-signature/-/http-signature-0.11.0.tgz",
                      "integrity": "sha1-F5bPZ6ABrVzWhJ3KCZFIXwkIn+Y=",
                      "dev": true,
                      "requires": {
                        "asn1": "0.1.11",
                        "assert-plus": "^0.1.5",
                        "ctype": "0.5.3"
                      },
                      "dependencies": {
                        "asn1": {
                          "version": "0.1.11",
                          "resolved": "https://registry.npmjs.org/asn1/-/asn1-0.1.11.tgz",
                          "integrity": "sha1-VZvhg3bQik7E2+gId9J4GGObLfc=",
                          "dev": true
                        },
                        "assert-plus": {
                          "version": "0.1.5",
                          "resolved": "https://registry.npmjs.org/assert-plus/-/assert-plus-0.1.5.tgz",
                          "integrity": "sha1-7nQAlBMALYTOxyGcasgRgS5yMWA=",
                          "dev": true
                        },
                        "ctype": {
                          "version": "0.5.3",
                          "resolved": "https://registry.npmjs.org/ctype/-/ctype-0.5.3.tgz",
                          "integrity": "sha1-gsGMJGH3QRTvFsE1IkrQuRRMoS8=",
                          "dev": true
                        }
                      }
                    },
                    "isstream": {
                      "version": "0.1.2",
                      "resolved": "https://registry.npmjs.org/isstream/-/isstream-0.1.2.tgz",
                      "integrity": "sha1-R+Y/evVa+m+S4VAOaQ64uFKcCZo=",
                      "dev": true
                    },
                    "json-stringify-safe": {
                      "version": "5.0.1",
                      "resolved": "https://registry.npmjs.org/json-stringify-safe/-/json-stringify-safe-5.0.1.tgz",
                      "integrity": "sha1-Epai1Y/UXxmg9s4B1lcB4sc1tus=",
                      "dev": true
                    },
                    "mime-types": {
                      "version": "2.1.6",
                      "resolved": "https://registry.npmjs.org/mime-types/-/mime-types-2.1.6.tgz",
                      "integrity": "sha1-lJ+HiEEYZN3HCUig8hxD8p0lZnw=",
                      "dev": true,
                      "requires": {
                        "mime-db": "~1.18.0"
                      },
                      "dependencies": {
                        "mime-db": {
                          "version": "1.18.0",
                          "resolved": "https://registry.npmjs.org/mime-db/-/mime-db-1.18.0.tgz",
                          "integrity": "sha1-UxfigiTAivHUhPYJc904a6jzieA=",
                          "dev": true
                        }
                      }
                    },
                    "node-uuid": {
                      "version": "1.4.3",
                      "resolved": "https://registry.npmjs.org/node-uuid/-/node-uuid-1.4.3.tgz",
                      "integrity": "sha1-MZu3pW58tj8AtcDNeFHNS03fHfk=",
                      "dev": true
                    },
                    "oauth-sign": {
                      "version": "0.8.0",
                      "resolved": "https://registry.npmjs.org/oauth-sign/-/oauth-sign-0.8.0.tgz",
                      "integrity": "sha1-k4/ch1dlulJxN9iuydF44k3rxVM=",
                      "dev": true
                    },
                    "qs": {
                      "version": "4.0.0",
                      "resolved": "https://registry.npmjs.org/qs/-/qs-4.0.0.tgz",
                      "integrity": "sha1-wx2bdOwn33XlQ6hseHKO2NRiNgc=",
                      "dev": true
                    },
                    "stringstream": {
                      "version": "0.0.4",
                      "resolved": "https://registry.npmjs.org/stringstream/-/stringstream-0.0.4.tgz",
                      "integrity": "sha1-Dw40I/lClgtWkqwySlfdCTvEGpI=",
                      "dev": true
                    },
                    "tough-cookie": {
                      "version": "2.0.0",
                      "resolved": "https://registry.npmjs.org/tough-cookie/-/tough-cookie-2.0.0.tgz",
                      "integrity": "sha1-Qc4Icgs1z5C+sETdJgn7GekocY8=",
                      "dev": true
                    },
                    "tunnel-agent": {
                      "version": "0.4.1",
                      "resolved": "https://registry.npmjs.org/tunnel-agent/-/tunnel-agent-0.4.1.tgz",
                      "integrity": "sha1-u+7P9NZ5znU9uUYnYaiN/Ow8WrM=",
                      "dev": true
                    }
                  }
                },
                "single-line-log": {
                  "version": "0.4.1",
                  "resolved": "https://registry.npmjs.org/single-line-log/-/single-line-log-0.4.1.tgz",
                  "integrity": "sha1-h6VWSfdJ14PsDc2AToFA2Yc8fO4=",
                  "dev": true
                },
                "throttleit": {
                  "version": "0.0.2",
                  "resolved": "https://registry.npmjs.org/throttleit/-/throttleit-0.0.2.tgz",
                  "integrity": "sha1-z+34jmDADdlpe2H90qg0OptoDq8=",
                  "dev": true
                }
              }
            },
            "path-exists": {
              "version": "1.0.0",
              "resolved": "https://registry.npmjs.org/path-exists/-/path-exists-1.0.0.tgz",
              "integrity": "sha1-1aiZjrce83p0w06w2eum6HjuoIE=",
              "dev": true
            }
          }
        },
        "extract-zip": {
          "version": "1.1.1",
          "resolved": "https://registry.npmjs.org/extract-zip/-/extract-zip-1.1.1.tgz",
          "integrity": "sha1-aTY3KxOm0uTbAcEW5SicQ49Rm5Q=",
          "dev": true,
          "requires": {
            "async": "0.9.0",
            "concat-stream": "1.5.0",
            "debug": "0.7.4",
            "mkdirp": "0.5.0",
            "yauzl": "^2.3.1"
          },
          "dependencies": {
            "async": {
              "version": "0.9.0",
              "resolved": "https://registry.npmjs.org/async/-/async-0.9.0.tgz",
              "integrity": "sha1-rDYTsdqb7RtHUQu0ZRuJMeRxRsc=",
              "dev": true
            },
            "concat-stream": {
              "version": "1.5.0",
              "resolved": "https://registry.npmjs.org/concat-stream/-/concat-stream-1.5.0.tgz",
              "integrity": "sha1-U/fUPFHF5D+ByP3QMyHGMb5o1hE=",
              "dev": true,
              "requires": {
                "inherits": "~2.0.1",
                "readable-stream": "~2.0.0",
                "typedarray": "~0.0.5"
              },
              "dependencies": {
                "inherits": {
                  "version": "2.0.1",
                  "resolved": "https://registry.npmjs.org/inherits/-/inherits-2.0.1.tgz",
                  "integrity": "sha1-sX0I0ya0Qj5Wjv9xn5GwscvfafE=",
                  "dev": true
                },
                "readable-stream": {
                  "version": "2.0.2",
                  "resolved": "https://registry.npmjs.org/readable-stream/-/readable-stream-2.0.2.tgz",
                  "integrity": "sha1-vsgb6ujPRVFovC5bKzH1vPrtmxs=",
                  "dev": true,
                  "requires": {
                    "core-util-is": "~1.0.0",
                    "inherits": "~2.0.1",
                    "isarray": "0.0.1",
                    "process-nextick-args": "~1.0.0",
                    "string_decoder": "~0.10.x",
                    "util-deprecate": "~1.0.1"
                  },
                  "dependencies": {
                    "core-util-is": {
                      "version": "1.0.1",
                      "resolved": "https://registry.npmjs.org/core-util-is/-/core-util-is-1.0.1.tgz",
                      "integrity": "sha1-awcIWu+aPMrG7lO/nT3wwVIaVTg=",
                      "dev": true
                    },
                    "isarray": {
                      "version": "0.0.1",
                      "resolved": "https://registry.npmjs.org/isarray/-/isarray-0.0.1.tgz",
                      "integrity": "sha1-ihis/Kmo9Bd+Cav8YDiTmwXR7t8=",
                      "dev": true
                    },
                    "process-nextick-args": {
                      "version": "1.0.3",
                      "resolved": "https://registry.npmjs.org/process-nextick-args/-/process-nextick-args-1.0.3.tgz",
                      "integrity": "sha1-4nLu2CXV6fTqdNjXOx/jEcO+tjA=",
                      "dev": true
                    },
                    "string_decoder": {
                      "version": "0.10.31",
                      "resolved": "https://registry.npmjs.org/string_decoder/-/string_decoder-0.10.31.tgz",
                      "integrity": "sha1-YuIDvEF2bGwoyfyEMB2rHFMQ+pQ=",
                      "dev": true
                    },
                    "util-deprecate": {
                      "version": "1.0.1",
                      "resolved": "https://registry.npmjs.org/util-deprecate/-/util-deprecate-1.0.1.tgz",
                      "integrity": "sha1-NVaj0TxMaqeYPX4kJUeBlxmbeIE=",
                      "dev": true
                    }
                  }
                },
                "typedarray": {
                  "version": "0.0.6",
                  "resolved": "https://registry.npmjs.org/typedarray/-/typedarray-0.0.6.tgz",
                  "integrity": "sha1-hnrHTjhkGHsdPUfZlqeOxciDB3c=",
                  "dev": true
                }
              }
            },
            "debug": {
              "version": "0.7.4",
              "resolved": "https://registry.npmjs.org/debug/-/debug-0.7.4.tgz",
              "integrity": "sha1-BuHqgILCyxTjmAbiLi9vdX+Srzk=",
              "dev": true
            },
            "minimist": {
              "version": "0.1.0",
              "resolved": "https://registry.npmjs.org/minimist/-/minimist-0.1.0.tgz",
              "integrity": "sha1-md9lelJXTCHJBXSX33QnkLK0wN4="
            },
            "mkdirp": {
              "version": "0.5.0",
              "resolved": "https://registry.npmjs.org/mkdirp/-/mkdirp-0.5.0.tgz",
              "integrity": "sha1-HXMHam35hs2TROFecfzAWkyavxI=",
              "dev": true,
              "requires": {
                "minimist": "0.0.8"
              },
              "dependencies": {
                "minimist": {
                  "version": "0.0.8",
                  "resolved": "https://registry.npmjs.org/minimist/-/minimist-0.0.8.tgz",
                  "integrity": "sha1-hX/Kv8M5fSYluCKCYuhqp6ARsF0=",
                  "dev": true
                }
              }
            },
            "through2": {
              "version": "0.6.3",
              "resolved": "https://registry.npmjs.org/through2/-/through2-0.6.3.tgz",
              "integrity": "sha1-eVKS/enyVMKjaLOPnMXRvUZjr7Y=",
              "requires": {
                "readable-stream": ">=1.0.33-1 <1.1.0-0",
                "xtend": ">=4.0.0 <4.1.0-0"
              },
              "dependencies": {
                "readable-stream": {
                  "version": "1.0.33",
                  "resolved": "https://registry.npmjs.org/readable-stream/-/readable-stream-1.0.33.tgz",
                  "integrity": "sha1-OjYN1mwbHX/UcFOJhg7aHQ9hEmw=",
                  "requires": {
                    "core-util-is": "~1.0.0",
                    "inherits": "~2.0.1",
                    "isarray": "0.0.1",
                    "string_decoder": "~0.10.x"
                  },
                  "dependencies": {
                    "core-util-is": {
                      "version": "1.0.1",
                      "resolved": "https://registry.npmjs.org/core-util-is/-/core-util-is-1.0.1.tgz",
                      "integrity": "sha1-awcIWu+aPMrG7lO/nT3wwVIaVTg="
                    },
                    "inherits": {
                      "version": "2.0.1",
                      "resolved": "https://registry.npmjs.org/inherits/-/inherits-2.0.1.tgz",
                      "integrity": "sha1-sX0I0ya0Qj5Wjv9xn5GwscvfafE="
                    },
                    "isarray": {
                      "version": "0.0.1",
                      "resolved": "https://registry.npmjs.org/isarray/-/isarray-0.0.1.tgz",
                      "integrity": "sha1-ihis/Kmo9Bd+Cav8YDiTmwXR7t8="
                    },
                    "string_decoder": {
                      "version": "0.10.31",
                      "resolved": "https://registry.npmjs.org/string_decoder/-/string_decoder-0.10.31.tgz",
                      "integrity": "sha1-YuIDvEF2bGwoyfyEMB2rHFMQ+pQ="
                    }
                  }
                },
                "xtend": {
                  "version": "4.0.0",
                  "resolved": "https://registry.npmjs.org/xtend/-/xtend-4.0.0.tgz",
                  "integrity": "sha1-i8Nv+Hrtvnzp6vC8o2sjVKdDhA8="
                }
              }
            },
            "yauzl": {
              "version": "2.3.1",
              "resolved": "https://registry.npmjs.org/yauzl/-/yauzl-2.3.1.tgz",
              "integrity": "sha1-Zwf+K2pNrJRFzEKb8EoRx97fo2o=",
              "dev": true,
              "requires": {
                "fd-slicer": "~1.0.1",
                "pend": "~1.2.0"
              },
              "dependencies": {
                "fd-slicer": {
                  "version": "1.0.1",
                  "resolved": "https://registry.npmjs.org/fd-slicer/-/fd-slicer-1.0.1.tgz",
                  "integrity": "sha1-i1vL2ewyfFBBv5qwI/1nUPEXfmU=",
                  "dev": true,
                  "requires": {
                    "pend": "~1.2.0"
                  }
                },
                "pend": {
                  "version": "1.2.0",
                  "resolved": "https://registry.npmjs.org/pend/-/pend-1.2.0.tgz",
                  "integrity": "sha1-elfrVQpng/kRUzH89GY9XI4AelA=",
                  "dev": true
                }
              }
            }
          }
        },
        "minimist": {
          "version": "1.2.0",
          "resolved": "https://registry.npmjs.org/minimist/-/minimist-1.2.0.tgz",
          "integrity": "sha1-o1AIsg9BOD7sH7kU9M1d95omQoQ=",
          "dev": true
        },
        "mkdirp": {
          "version": "0.5.1",
          "resolved": "https://registry.npmjs.org/mkdirp/-/mkdirp-0.5.1.tgz",
          "integrity": "sha1-MAV0OOrGz3+MR2fzhkjWaX11yQM=",
          "dev": true,
          "requires": {
            "minimist": "0.0.8"
          },
          "dependencies": {
            "minimist": {
              "version": "0.0.8",
              "resolved": "https://registry.npmjs.org/minimist/-/minimist-0.0.8.tgz",
              "integrity": "sha1-hX/Kv8M5fSYluCKCYuhqp6ARsF0=",
              "dev": true
            }
          }
        },
        "mv": {
          "version": "2.1.1",
          "resolved": "https://registry.npmjs.org/mv/-/mv-2.1.1.tgz",
          "integrity": "sha1-rmzg1vbV4KT32JN5jQPB6pVZtqI=",
          "dev": true,
          "requires": {
            "mkdirp": "~0.5.1",
            "ncp": "~2.0.0",
            "rimraf": "~2.4.0"
          }
        },
        "ncp": {
          "version": "2.0.0",
          "resolved": "https://registry.npmjs.org/ncp/-/ncp-2.0.0.tgz",
          "integrity": "sha1-GVoh1sRuNh0vsSgbo4uR6d9727M=",
          "dev": true
        },
        "plist": {
          "version": "1.1.0",
          "resolved": "https://registry.npmjs.org/plist/-/plist-1.1.0.tgz",
          "integrity": "sha1-/2cIWQyXzEOOe8Rd5SUb1yXz+J0=",
          "dev": true,
          "requires": {
            "base64-js": "0.0.6",
            "util-deprecate": "1.0.0",
            "xmlbuilder": "2.2.1",
            "xmldom": "0.1.x"
          },
          "dependencies": {
            "base64-js": {
              "version": "0.0.6",
              "resolved": "https://registry.npmjs.org/base64-js/-/base64-js-0.0.6.tgz",
              "integrity": "sha1-e4WfefC7vVWGe6Z6f6s5fiSiCUc=",
              "dev": true
            },
            "util-deprecate": {
              "version": "1.0.0",
              "resolved": "https://registry.npmjs.org/util-deprecate/-/util-deprecate-1.0.0.tgz",
              "integrity": "sha1-MAevASwUDq4m3gVXbsInhcrDq/I=",
              "dev": true
            },
            "xmlbuilder": {
              "version": "2.2.1",
              "resolved": "https://registry.npmjs.org/xmlbuilder/-/xmlbuilder-2.2.1.tgz",
              "integrity": "sha1-kyZDDxMNh0NdTECGZDqikm4QWjI=",
              "dev": true,
              "requires": {
                "lodash-node": "~2.4.1"
              },
              "dependencies": {
                "lodash-node": {
                  "version": "2.4.1",
                  "resolved": "https://registry.npmjs.org/lodash-node/-/lodash-node-2.4.1.tgz",
                  "integrity": "sha1-6oL3sQDHM9GkKvdoAeUGEF4qgOw=",
                  "dev": true
                }
              }
            },
            "xmldom": {
              "version": "0.1.19",
              "resolved": "https://registry.npmjs.org/xmldom/-/xmldom-0.1.19.tgz",
              "integrity": "sha1-Yx/Ad3bv2EEYvyUXGzftTQdaCrw=",
              "dev": true
            }
          }
        },
        "rcedit": {
          "version": "0.3.0",
          "resolved": "https://registry.npmjs.org/rcedit/-/rcedit-0.3.0.tgz",
          "integrity": "sha1-y17uGF5Ub57aWXwkjJkGGG+pa84=",
          "dev": true
        },
        "rimraf": {
          "version": "2.4.3",
          "resolved": "https://registry.npmjs.org/rimraf/-/rimraf-2.4.3.tgz",
          "integrity": "sha1-5bUclDekxYKtuVXp8oz42UXicq8=",
          "dev": true,
          "requires": {
            "glob": "^5.0.14"
          },
          "dependencies": {
            "glob": {
              "version": "5.0.14",
              "resolved": "https://registry.npmjs.org/glob/-/glob-5.0.14.tgz",
              "integrity": "sha1-qBHVB6y2BUQe3WzSYio8bwbMAOE=",
              "dev": true,
              "requires": {
                "inflight": "^1.0.4",
                "inherits": "2",
                "minimatch": "^2.0.1",
                "once": "^1.3.0",
                "path-is-absolute": "^1.0.0"
              },
              "dependencies": {
                "inflight": {
                  "version": "1.0.4",
                  "resolved": "https://registry.npmjs.org/inflight/-/inflight-1.0.4.tgz",
                  "integrity": "sha1-bLtFIevVHODsCpNr/XZX736bFyo=",
                  "dev": true,
                  "requires": {
                    "once": "^1.3.0",
                    "wrappy": "1"
                  },
                  "dependencies": {
                    "wrappy": {
                      "version": "1.0.1",
                      "resolved": "https://registry.npmjs.org/wrappy/-/wrappy-1.0.1.tgz",
                      "integrity": "sha1-HmWWmWXMvC20VIxrhKbyxa7dRzk=",
                      "dev": true
                    }
                  }
                },
                "inherits": {
                  "version": "2.0.1",
                  "resolved": "https://registry.npmjs.org/inherits/-/inherits-2.0.1.tgz",
                  "integrity": "sha1-sX0I0ya0Qj5Wjv9xn5GwscvfafE=",
                  "dev": true
                },
                "minimatch": {
                  "version": "2.0.10",
                  "resolved": "https://registry.npmjs.org/minimatch/-/minimatch-2.0.10.tgz",
                  "integrity": "sha1-jQh8OcazjAAbl/ynzm0OHoCvusc=",
                  "dev": true,
                  "requires": {
                    "brace-expansion": "^1.0.0"
                  },
                  "dependencies": {
                    "brace-expansion": {
                      "version": "1.1.0",
                      "resolved": "https://registry.npmjs.org/brace-expansion/-/brace-expansion-1.1.0.tgz",
                      "integrity": "sha1-ybfQPAPze8cEvhAOUitA249s/Nk=",
                      "dev": true,
                      "requires": {
                        "balanced-match": "^0.2.0",
                        "concat-map": "0.0.1"
                      },
                      "dependencies": {
                        "balanced-match": {
                          "version": "0.2.0",
                          "resolved": "https://registry.npmjs.org/balanced-match/-/balanced-match-0.2.0.tgz",
                          "integrity": "sha1-OPZzDAOqttXtu1K9k0iF51bXFnQ=",
                          "dev": true
                        },
                        "concat-map": {
                          "version": "0.0.1",
                          "resolved": "https://registry.npmjs.org/concat-map/-/concat-map-0.0.1.tgz",
                          "integrity": "sha1-2Klr13/Wjfd5OnMDajug1UBdR3s=",
                          "dev": true
                        }
                      }
                    }
                  }
                },
                "once": {
                  "version": "1.3.2",
                  "resolved": "https://registry.npmjs.org/once/-/once-1.3.2.tgz",
                  "integrity": "sha1-2P7sqTsDnsHc3ud0HJK9rF4oCBs=",
                  "dev": true,
                  "requires": {
                    "wrappy": "1"
                  },
                  "dependencies": {
                    "wrappy": {
                      "version": "1.0.1",
                      "resolved": "https://registry.npmjs.org/wrappy/-/wrappy-1.0.1.tgz",
                      "integrity": "sha1-HmWWmWXMvC20VIxrhKbyxa7dRzk=",
                      "dev": true
                    }
                  }
                },
                "path-is-absolute": {
                  "version": "1.0.0",
                  "resolved": "https://registry.npmjs.org/path-is-absolute/-/path-is-absolute-1.0.0.tgz",
                  "integrity": "sha1-Jj2tpmqz8vsQv3+dJN2PPlcO+RI=",
                  "dev": true
                }
              }
            }
          }
        },
        "run-series": {
          "version": "1.1.2",
          "resolved": "https://registry.npmjs.org/run-series/-/run-series-1.1.2.tgz",
          "integrity": "sha1-8YTRYMyHCFv63O3KlGyrAaWl7jA=",
          "dev": true,
          "requires": {
            "dezalgo": "^1.0.1"
          },
          "dependencies": {
            "dezalgo": {
              "version": "1.0.3",
              "resolved": "https://registry.npmjs.org/dezalgo/-/dezalgo-1.0.3.tgz",
              "integrity": "sha1-f3Qt4Gb8dIvI24IFad3c5Jvw1FY=",
              "dev": true,
              "requires": {
                "asap": "^2.0.0",
                "wrappy": "1"
              },
              "dependencies": {
                "asap": {
                  "version": "2.0.3",
                  "resolved": "https://registry.npmjs.org/asap/-/asap-2.0.3.tgz",
                  "integrity": "sha1-H8HRVk7hFiDfym1nAphQkT+fRnk=",
                  "dev": true
                },
                "wrappy": {
                  "version": "1.0.1",
                  "resolved": "https://registry.npmjs.org/wrappy/-/wrappy-1.0.1.tgz",
                  "integrity": "sha1-HmWWmWXMvC20VIxrhKbyxa7dRzk=",
                  "dev": true
                }
              }
            }
          }
        }
      }
    },
    "electron-prebuilt": {
      "version": "0.30.8",
      "resolved": "https://registry.npmjs.org/electron-prebuilt/-/electron-prebuilt-0.30.8.tgz",
      "integrity": "sha1-d84yesFYAYRc7TFq4qvNxuWxvxs=",
      "dev": true,
      "requires": {
        "electron-download": "^1.0.0",
        "extract-zip": "^1.0.3"
      }
    },
    "error-ex": {
      "version": "1.3.2",
      "resolved": "https://registry.npmjs.org/error-ex/-/error-ex-1.3.2.tgz",
      "integrity": "sha512-7dFHNmqeFSEt2ZBsCriorKnn3Z2pj+fd9kmI6QoWw4//DL+icEBfc0U7qJCisqrTsKTjw4fNFy2pW9OqStD84g==",
      "dev": true,
      "requires": {
        "is-arrayish": "^0.2.1"
      }
    },
    "extend": {
      "version": "3.0.2",
      "resolved": "https://registry.npmjs.org/extend/-/extend-3.0.2.tgz",
      "integrity": "sha512-fjquC59cD7CyW6urNXK0FBufkZcoiGG80wTuPujX590cB5Ttln20E2UB4S/WARVqhXffZl2LNgS+gQdPIIim/g==",
      "dev": true
    },
    "extract-zip": {
      "version": "1.6.7",
      "resolved": "https://registry.npmjs.org/extract-zip/-/extract-zip-1.6.7.tgz",
      "integrity": "sha1-qEC0uK9kAyZMjbV/Txp0Mz74H+k=",
      "dev": true,
      "requires": {
        "concat-stream": "1.6.2",
        "debug": "2.6.9",
        "mkdirp": "0.5.1",
        "yauzl": "2.4.1"
      }
    },
    "extsprintf": {
      "version": "1.3.0",
      "resolved": "https://registry.npmjs.org/extsprintf/-/extsprintf-1.3.0.tgz",
      "integrity": "sha1-lpGEQOMEGnpBT4xS48V06zw+HgU=",
      "dev": true
    },
    "fast-deep-equal": {
      "version": "1.1.0",
      "resolved": "http://registry.npmjs.org/fast-deep-equal/-/fast-deep-equal-1.1.0.tgz",
      "integrity": "sha1-wFNHeBfIa1HaqFPIHgWbcz0CNhQ=",
      "dev": true
    },
    "fast-json-stable-stringify": {
      "version": "2.0.0",
      "resolved": "https://registry.npmjs.org/fast-json-stable-stringify/-/fast-json-stable-stringify-2.0.0.tgz",
      "integrity": "sha1-1RQsDK7msRifh9OnYREGT4bIu/I=",
      "dev": true
    },
    "fd-slicer": {
      "version": "1.0.1",
      "resolved": "https://registry.npmjs.org/fd-slicer/-/fd-slicer-1.0.1.tgz",
      "integrity": "sha1-i1vL2ewyfFBBv5qwI/1nUPEXfmU=",
      "dev": true,
      "requires": {
        "pend": "~1.2.0"
      }
    },
    "find-up": {
      "version": "1.1.2",
      "resolved": "https://registry.npmjs.org/find-up/-/find-up-1.1.2.tgz",
      "integrity": "sha1-ay6YIrGizgpgq2TWEOzK1TyyTQ8=",
      "dev": true,
      "requires": {
        "path-exists": "^2.0.0",
        "pinkie-promise": "^2.0.0"
      },
      "dependencies": {
        "path-exists": {
          "version": "2.1.0",
          "resolved": "https://registry.npmjs.org/path-exists/-/path-exists-2.1.0.tgz",
          "integrity": "sha1-D+tsZPD8UY2adU3V77YscCJ2H0s=",
          "dev": true,
          "requires": {
            "pinkie-promise": "^2.0.0"
          }
        }
      }
    },
    "forever-agent": {
      "version": "0.6.1",
      "resolved": "https://registry.npmjs.org/forever-agent/-/forever-agent-0.6.1.tgz",
      "integrity": "sha1-+8cfDEGt6zf5bFd60e1C2P2sypE=",
      "dev": true
    },
    "form-data": {
      "version": "2.3.3",
      "resolved": "https://registry.npmjs.org/form-data/-/form-data-2.3.3.tgz",
      "integrity": "sha512-1lLKB2Mu3aGP1Q/2eCOx0fNbRMe7XdwktwOruhfqqd0rIJWwN4Dh+E3hrPSlDCXnSR7UtZ1N38rVXm+6+MEhJQ==",
      "dev": true,
      "requires": {
        "asynckit": "^0.4.0",
        "combined-stream": "^1.0.6",
        "mime-types": "^2.1.12"
      }
    },
    "get-stdin": {
      "version": "4.0.1",
      "resolved": "https://registry.npmjs.org/get-stdin/-/get-stdin-4.0.1.tgz",
      "integrity": "sha1-uWjGsKBDhDJJAui/Gl3zJXmkUP4=",
      "dev": true
    },
    "getpass": {
      "version": "0.1.7",
      "resolved": "https://registry.npmjs.org/getpass/-/getpass-0.1.7.tgz",
      "integrity": "sha1-Xv+OPmhNVprkyysSgmBOi6YhSfo=",
      "dev": true,
      "requires": {
        "assert-plus": "^1.0.0"
      }
    },
    "glob": {
      "version": "6.0.4",
      "resolved": "https://registry.npmjs.org/glob/-/glob-6.0.4.tgz",
      "integrity": "sha1-DwiGD2oVUSey+t1PnOJLGqtuTSI=",
      "dev": true,
      "requires": {
        "inflight": "^1.0.4",
        "inherits": "2",
        "minimatch": "2 || 3",
        "once": "^1.3.0",
        "path-is-absolute": "^1.0.0"
      }
    },
    "graceful-fs": {
      "version": "4.1.15",
      "resolved": "https://registry.npmjs.org/graceful-fs/-/graceful-fs-4.1.15.tgz",
      "integrity": "sha512-6uHUhOPEBgQ24HM+r6b/QwWfZq+yiFcipKFrOFiBEnWdy5sdzYoi+pJeQaPI5qOLRFqWmAXUPQNsielzdLoecA==",
      "dev": true
    },
    "har-schema": {
      "version": "2.0.0",
      "resolved": "https://registry.npmjs.org/har-schema/-/har-schema-2.0.0.tgz",
      "integrity": "sha1-qUwiJOvKwEeCoNkDVSHyRzW37JI=",
      "dev": true
    },
    "har-validator": {
      "version": "5.1.0",
      "resolved": "https://registry.npmjs.org/har-validator/-/har-validator-5.1.0.tgz",
      "integrity": "sha512-+qnmNjI4OfH2ipQ9VQOw23bBd/ibtfbVdK2fYbY4acTDqKTW/YDp9McimZdDbG8iV9fZizUqQMD5xvriB146TA==",
      "dev": true,
      "requires": {
        "ajv": "^5.3.0",
        "har-schema": "^2.0.0"
      }
    },
    "home-path": {
      "version": "1.0.6",
      "resolved": "https://registry.npmjs.org/home-path/-/home-path-1.0.6.tgz",
      "integrity": "sha512-wo+yjrdAtoXt43Vy92a+0IPCYViiyLAHyp0QVS4xL/tfvVz5sXIW1ubLZk3nhVkD92fQpUMKX+fzMjr5F489vw==",
      "dev": true
    },
    "hosted-git-info": {
      "version": "2.7.1",
      "resolved": "https://registry.npmjs.org/hosted-git-info/-/hosted-git-info-2.7.1.tgz",
      "integrity": "sha512-7T/BxH19zbcCTa8XkMlbK5lTo1WtgkFi3GvdWEyNuc4Vex7/9Dqbnpsf4JMydcfj9HCg4zUWFTL3Za6lapg5/w==",
      "dev": true
    },
    "http-signature": {
      "version": "1.2.0",
      "resolved": "https://registry.npmjs.org/http-signature/-/http-signature-1.2.0.tgz",
      "integrity": "sha1-muzZJRFHcvPZW2WmCruPfBj7rOE=",
      "dev": true,
      "requires": {
        "assert-plus": "^1.0.0",
        "jsprim": "^1.2.2",
        "sshpk": "^1.7.0"
      }
    },
    "indent-string": {
      "version": "2.1.0",
      "resolved": "https://registry.npmjs.org/indent-string/-/indent-string-2.1.0.tgz",
      "integrity": "sha1-ji1INIdCEhtKghi3oTfppSBJ3IA=",
      "dev": true,
      "requires": {
        "repeating": "^2.0.0"
      }
    },
    "inflight": {
      "version": "1.0.6",
      "resolved": "https://registry.npmjs.org/inflight/-/inflight-1.0.6.tgz",
      "integrity": "sha1-Sb1jMdfQLQwJvJEKEHW6gWW1bfk=",
      "dev": true,
      "requires": {
        "once": "^1.3.0",
        "wrappy": "1"
      }
    },
    "inherits": {
      "version": "2.0.3",
      "resolved": "https://registry.npmjs.org/inherits/-/inherits-2.0.3.tgz",
      "integrity": "sha1-Yzwsg+PaQqUC9SRmAiSA9CCCYd4=",
      "dev": true
    },
    "ini": {
      "version": "1.3.5",
      "resolved": "https://registry.npmjs.org/ini/-/ini-1.3.5.tgz",
      "integrity": "sha512-RZY5huIKCMRWDUqZlEi72f/lmXKMvuszcMBduliQ3nnWbx9X/ZBQO7DijMEYS9EhHBb2qacRUMtC7svLwe0lcw==",
      "dev": true
    },
    "is-arrayish": {
      "version": "0.2.1",
      "resolved": "https://registry.npmjs.org/is-arrayish/-/is-arrayish-0.2.1.tgz",
      "integrity": "sha1-d8mYQFJ6qOyxqLppe4BkWnqSap0=",
      "dev": true
    },
    "is-builtin-module": {
      "version": "1.0.0",
      "resolved": "http://registry.npmjs.org/is-builtin-module/-/is-builtin-module-1.0.0.tgz",
      "integrity": "sha1-VAVy0096wxGfj3bDDLwbHgN6/74=",
      "dev": true,
      "requires": {
        "builtin-modules": "^1.0.0"
      }
    },
    "is-finite": {
      "version": "1.0.2",
      "resolved": "https://registry.npmjs.org/is-finite/-/is-finite-1.0.2.tgz",
      "integrity": "sha1-zGZ3aVYCvlUO8R6LSqYwU0K20Ko=",
      "dev": true,
      "requires": {
        "number-is-nan": "^1.0.0"
      }
    },
    "is-typedarray": {
      "version": "1.0.0",
      "resolved": "https://registry.npmjs.org/is-typedarray/-/is-typedarray-1.0.0.tgz",
      "integrity": "sha1-5HnICFjfDBsR3dppQPlgEfzaSpo=",
      "dev": true
    },
    "is-utf8": {
      "version": "0.2.1",
      "resolved": "https://registry.npmjs.org/is-utf8/-/is-utf8-0.2.1.tgz",
      "integrity": "sha1-Sw2hRCEE0bM2NA6AeX6GXPOffXI=",
      "dev": true
    },
    "isarray": {
      "version": "0.0.1",
      "resolved": "https://registry.npmjs.org/isarray/-/isarray-0.0.1.tgz",
      "integrity": "sha1-ihis/Kmo9Bd+Cav8YDiTmwXR7t8=",
      "dev": true
    },
    "isstream": {
      "version": "0.1.2",
      "resolved": "https://registry.npmjs.org/isstream/-/isstream-0.1.2.tgz",
      "integrity": "sha1-R+Y/evVa+m+S4VAOaQ64uFKcCZo=",
      "dev": true
    },
    "jsbn": {
      "version": "0.1.1",
      "resolved": "https://registry.npmjs.org/jsbn/-/jsbn-0.1.1.tgz",
      "integrity": "sha1-peZUwuWi3rXyAdls77yoDA7y9RM=",
      "dev": true
    },
    "json-schema": {
      "version": "0.2.3",
      "resolved": "https://registry.npmjs.org/json-schema/-/json-schema-0.2.3.tgz",
      "integrity": "sha1-tIDIkuWaLwWVTOcnvT8qTogvnhM=",
      "dev": true
    },
    "json-schema-traverse": {
      "version": "0.3.1",
      "resolved": "https://registry.npmjs.org/json-schema-traverse/-/json-schema-traverse-0.3.1.tgz",
      "integrity": "sha1-NJptRMU6Ud6JtAgFxdXlm0F9M0A=",
      "dev": true
    },
    "json-stringify-safe": {
      "version": "5.0.1",
      "resolved": "https://registry.npmjs.org/json-stringify-safe/-/json-stringify-safe-5.0.1.tgz",
      "integrity": "sha1-Epai1Y/UXxmg9s4B1lcB4sc1tus=",
      "dev": true
    },
    "jsprim": {
      "version": "1.4.1",
      "resolved": "https://registry.npmjs.org/jsprim/-/jsprim-1.4.1.tgz",
      "integrity": "sha1-MT5mvB5cwG5Di8G3SZwuXFastqI=",
      "dev": true,
      "requires": {
        "assert-plus": "1.0.0",
        "extsprintf": "1.3.0",
        "json-schema": "0.2.3",
        "verror": "1.10.0"
      }
    },
    "load-json-file": {
      "version": "1.1.0",
      "resolved": "http://registry.npmjs.org/load-json-file/-/load-json-file-1.1.0.tgz",
      "integrity": "sha1-lWkFcI1YtLq0wiYbBPWfMcmTdMA=",
      "dev": true,
      "requires": {
        "graceful-fs": "^4.1.2",
        "parse-json": "^2.2.0",
        "pify": "^2.0.0",
        "pinkie-promise": "^2.0.0",
        "strip-bom": "^2.0.0"
      }
    },
    "loud-rejection": {
      "version": "1.6.0",
      "resolved": "https://registry.npmjs.org/loud-rejection/-/loud-rejection-1.6.0.tgz",
      "integrity": "sha1-W0b4AUft7leIcPCG0Eghz5mOVR8=",
      "dev": true,
      "requires": {
        "currently-unhandled": "^0.4.1",
        "signal-exit": "^3.0.0"
      }
    },
    "map-obj": {
      "version": "1.0.1",
      "resolved": "https://registry.npmjs.org/map-obj/-/map-obj-1.0.1.tgz",
      "integrity": "sha1-2TPOuSBdgr3PSIb2dCvcK03qFG0=",
      "dev": true
    },
    "meow": {
      "version": "3.7.0",
      "resolved": "http://registry.npmjs.org/meow/-/meow-3.7.0.tgz",
      "integrity": "sha1-cstmi0JSKCkKu/qFaJJYcwioAfs=",
      "dev": true,
      "requires": {
        "camelcase-keys": "^2.0.0",
        "decamelize": "^1.1.2",
        "loud-rejection": "^1.0.0",
        "map-obj": "^1.0.1",
        "minimist": "^1.1.3",
        "normalize-package-data": "^2.3.4",
        "object-assign": "^4.0.1",
        "read-pkg-up": "^1.0.1",
        "redent": "^1.0.0",
        "trim-newlines": "^1.0.0"
      }
    },
    "mime-db": {
      "version": "1.37.0",
      "resolved": "https://registry.npmjs.org/mime-db/-/mime-db-1.37.0.tgz",
      "integrity": "sha512-R3C4db6bgQhlIhPU48fUtdVmKnflq+hRdad7IyKhtFj06VPNVdk2RhiYL3UjQIlso8L+YxAtFkobT0VK+S/ybg==",
      "dev": true
    },
    "mime-types": {
      "version": "2.1.21",
      "resolved": "https://registry.npmjs.org/mime-types/-/mime-types-2.1.21.tgz",
      "integrity": "sha512-3iL6DbwpyLzjR3xHSFNFeb9Nz/M8WDkX33t1GFQnFOllWk8pOrh/LSrB5OXlnlW5P9LH73X6loW/eogc+F5lJg==",
      "dev": true,
      "requires": {
        "mime-db": "~1.37.0"
      }
    },
    "minimatch": {
      "version": "3.0.4",
      "resolved": "https://registry.npmjs.org/minimatch/-/minimatch-3.0.4.tgz",
      "integrity": "sha512-yJHVQEhyqPLUTgt9B83PXu6W3rx4MvvHvSUvToogpwoGDOUQ+yDrR0HRot+yOCdCO7u4hX3pWft6kWBBcqh0UA==",
      "dev": true,
      "requires": {
        "brace-expansion": "^1.1.7"
      }
    },
    "minimist": {
      "version": "1.2.0",
      "resolved": "http://registry.npmjs.org/minimist/-/minimist-1.2.0.tgz",
      "integrity": "sha1-o1AIsg9BOD7sH7kU9M1d95omQoQ=",
      "dev": true
    },
    "mkdirp": {
      "version": "0.5.1",
      "resolved": "http://registry.npmjs.org/mkdirp/-/mkdirp-0.5.1.tgz",
      "integrity": "sha1-MAV0OOrGz3+MR2fzhkjWaX11yQM=",
      "dev": true,
      "requires": {
        "minimist": "0.0.8"
      },
      "dependencies": {
        "minimist": {
          "version": "0.0.8",
          "resolved": "http://registry.npmjs.org/minimist/-/minimist-0.0.8.tgz",
          "integrity": "sha1-hX/Kv8M5fSYluCKCYuhqp6ARsF0=",
          "dev": true
        }
      }
    },
    "moniker": {
      "version": "0.1.2",
      "resolved": "https://registry.npmjs.org/moniker/-/moniker-0.1.2.tgz",
      "integrity": "sha1-hy37pXXc6o+gSlE1sT1fJL7MyX4="
    },
    "ms": {
      "version": "2.0.0",
      "resolved": "https://registry.npmjs.org/ms/-/ms-2.0.0.tgz",
      "integrity": "sha1-VgiurfwAvmwpAd9fmGF4jeDVl8g=",
      "dev": true
    },
    "mv": {
      "version": "2.1.1",
      "resolved": "https://registry.npmjs.org/mv/-/mv-2.1.1.tgz",
      "integrity": "sha1-rmzg1vbV4KT32JN5jQPB6pVZtqI=",
      "dev": true,
      "requires": {
        "mkdirp": "~0.5.1",
        "ncp": "~2.0.0",
        "rimraf": "~2.4.0"
      }
    },
    "ncp": {
      "version": "2.0.0",
      "resolved": "http://registry.npmjs.org/ncp/-/ncp-2.0.0.tgz",
      "integrity": "sha1-GVoh1sRuNh0vsSgbo4uR6d9727M=",
      "dev": true
    },
    "normalize-package-data": {
      "version": "2.4.0",
      "resolved": "https://registry.npmjs.org/normalize-package-data/-/normalize-package-data-2.4.0.tgz",
      "integrity": "sha512-9jjUFbTPfEy3R/ad/2oNbKtW9Hgovl5O1FvFWKkKblNXoN/Oou6+9+KKohPK13Yc3/TyunyWhJp6gvRNR/PPAw==",
      "dev": true,
      "requires": {
        "hosted-git-info": "^2.1.4",
        "is-builtin-module": "^1.0.0",
        "semver": "2 || 3 || 4 || 5",
        "validate-npm-package-license": "^3.0.1"
      }
    },
    "nugget": {
      "version": "1.6.2",
      "resolved": "https://registry.npmjs.org/nugget/-/nugget-1.6.2.tgz",
      "integrity": "sha1-iMpuA7pXBqmRc/XaCQJZPWvK4Qc=",
      "dev": true,
      "requires": {
        "debug": "^2.1.3",
        "minimist": "^1.1.0",
        "pretty-bytes": "^1.0.2",
        "progress-stream": "^1.1.0",
        "request": "^2.45.0",
        "single-line-log": "^0.4.1",
        "throttleit": "0.0.2"
      }
    },
    "number-is-nan": {
      "version": "1.0.1",
      "resolved": "https://registry.npmjs.org/number-is-nan/-/number-is-nan-1.0.1.tgz",
      "integrity": "sha1-CXtgK1NCKlIsGvuHkDGDNpQaAR0=",
      "dev": true
    },
    "oauth-sign": {
      "version": "0.9.0",
      "resolved": "https://registry.npmjs.org/oauth-sign/-/oauth-sign-0.9.0.tgz",
      "integrity": "sha512-fexhUFFPTGV8ybAtSIGbV6gOkSv8UtRbDBnAyLQw4QPKkgNlsH2ByPGtMUqdWkos6YCRmAqViwgZrJc/mRDzZQ==",
      "dev": true
    },
    "object-assign": {
      "version": "4.1.1",
      "resolved": "https://registry.npmjs.org/object-assign/-/object-assign-4.1.1.tgz",
      "integrity": "sha1-IQmtx5ZYh8/AXLvUQsrIv7s2CGM=",
      "dev": true
    },
    "object-keys": {
      "version": "0.4.0",
      "resolved": "https://registry.npmjs.org/object-keys/-/object-keys-0.4.0.tgz",
      "integrity": "sha1-KKaq50KN0sOpLz2V8hM13SBOAzY=",
      "dev": true
    },
    "once": {
      "version": "1.4.0",
      "resolved": "https://registry.npmjs.org/once/-/once-1.4.0.tgz",
      "integrity": "sha1-WDsap3WWHUsROsF9nFC6753Xa9E=",
      "dev": true,
      "requires": {
        "wrappy": "1"
      }
    },
    "parse-json": {
      "version": "2.2.0",
      "resolved": "https://registry.npmjs.org/parse-json/-/parse-json-2.2.0.tgz",
      "integrity": "sha1-9ID0BDTvgHQfhGkJn43qGPVaTck=",
      "dev": true,
      "requires": {
        "error-ex": "^1.2.0"
      }
    },
    "path-exists": {
      "version": "1.0.0",
      "resolved": "https://registry.npmjs.org/path-exists/-/path-exists-1.0.0.tgz",
      "integrity": "sha1-1aiZjrce83p0w06w2eum6HjuoIE=",
      "dev": true
    },
    "path-is-absolute": {
      "version": "1.0.1",
      "resolved": "http://registry.npmjs.org/path-is-absolute/-/path-is-absolute-1.0.1.tgz",
      "integrity": "sha1-F0uSaHNVNP+8es5r9TpanhtcX18=",
      "dev": true
    },
    "path-type": {
      "version": "1.1.0",
      "resolved": "https://registry.npmjs.org/path-type/-/path-type-1.1.0.tgz",
      "integrity": "sha1-WcRPfuSR2nBNpBXaWkBwuk+P5EE=",
      "dev": true,
      "requires": {
        "graceful-fs": "^4.1.2",
        "pify": "^2.0.0",
        "pinkie-promise": "^2.0.0"
      }
    },
    "pend": {
      "version": "1.2.0",
      "resolved": "https://registry.npmjs.org/pend/-/pend-1.2.0.tgz",
      "integrity": "sha1-elfrVQpng/kRUzH89GY9XI4AelA=",
      "dev": true
    },
    "performance-now": {
      "version": "2.1.0",
      "resolved": "https://registry.npmjs.org/performance-now/-/performance-now-2.1.0.tgz",
      "integrity": "sha1-Ywn04OX6kT7BxpMHrjZLSzd8nns=",
      "dev": true
    },
    "pify": {
      "version": "2.3.0",
      "resolved": "http://registry.npmjs.org/pify/-/pify-2.3.0.tgz",
      "integrity": "sha1-7RQaasBDqEnqWISY59yosVMw6Qw=",
      "dev": true
    },
    "pinkie": {
      "version": "2.0.4",
      "resolved": "https://registry.npmjs.org/pinkie/-/pinkie-2.0.4.tgz",
      "integrity": "sha1-clVrgM+g1IqXToDnckjoDtT3+HA=",
      "dev": true
    },
    "pinkie-promise": {
      "version": "2.0.1",
      "resolved": "https://registry.npmjs.org/pinkie-promise/-/pinkie-promise-2.0.1.tgz",
      "integrity": "sha1-ITXW36ejWMBprJsXh3YogihFD/o=",
      "dev": true,
      "requires": {
        "pinkie": "^2.0.0"
      }
    },
    "pretty-bytes": {
      "version": "1.0.4",
      "resolved": "https://registry.npmjs.org/pretty-bytes/-/pretty-bytes-1.0.4.tgz",
      "integrity": "sha1-CiLoIQYJrTVUL4yNXSFZr/B1HIQ=",
      "dev": true,
      "requires": {
        "get-stdin": "^4.0.1",
        "meow": "^3.1.0"
      }
    },
    "process-nextick-args": {
      "version": "2.0.0",
      "resolved": "https://registry.npmjs.org/process-nextick-args/-/process-nextick-args-2.0.0.tgz",
      "integrity": "sha512-MtEC1TqN0EU5nephaJ4rAtThHtC86dNN9qCuEhtshvpVBkAW5ZO7BASN9REnF9eoXGcRub+pFuKEpOHE+HbEMw==",
      "dev": true
    },
    "progress-stream": {
      "version": "1.2.0",
      "resolved": "https://registry.npmjs.org/progress-stream/-/progress-stream-1.2.0.tgz",
      "integrity": "sha1-LNPP6jO6OonJwSHsM0er6asSX3c=",
      "dev": true,
      "requires": {
        "speedometer": "~0.1.2",
        "through2": "~0.2.3"
      }
    },
    "psl": {
      "version": "1.1.29",
      "resolved": "https://registry.npmjs.org/psl/-/psl-1.1.29.tgz",
      "integrity": "sha512-AeUmQ0oLN02flVHXWh9sSJF7mcdFq0ppid/JkErufc3hGIV/AMa8Fo9VgDo/cT2jFdOWoFvHp90qqBH54W+gjQ==",
      "dev": true
    },
    "punycode": {
      "version": "1.4.1",
      "resolved": "https://registry.npmjs.org/punycode/-/punycode-1.4.1.tgz",
      "integrity": "sha1-wNWmOycYgArY4esPpSachN1BhF4=",
      "dev": true
    },
    "qs": {
      "version": "6.5.2",
      "resolved": "https://registry.npmjs.org/qs/-/qs-6.5.2.tgz",
      "integrity": "sha512-N5ZAX4/LxJmF+7wN74pUD6qAh9/wnvdQcjq9TZjevvXzSUo7bfmw91saqMjzGS2xq91/odN2dW/WOl7qQHNDGA==",
      "dev": true
    },
    "rc": {
      "version": "1.2.8",
      "resolved": "https://registry.npmjs.org/rc/-/rc-1.2.8.tgz",
      "integrity": "sha512-y3bGgqKj3QBdxLbLkomlohkvsA8gdAiUQlSBJnBhfn+BPxg4bc62d8TcBW15wavDfgexCgccckhcZvywyQYPOw==",
      "dev": true,
      "requires": {
        "deep-extend": "^0.6.0",
        "ini": "~1.3.0",
        "minimist": "^1.2.0",
        "strip-json-comments": "~2.0.1"
      }
    },
    "read-pkg": {
      "version": "1.1.0",
      "resolved": "https://registry.npmjs.org/read-pkg/-/read-pkg-1.1.0.tgz",
      "integrity": "sha1-9f+qXs0pyzHAR0vKfXVra7KePyg=",
      "dev": true,
      "requires": {
        "load-json-file": "^1.0.0",
        "normalize-package-data": "^2.3.2",
        "path-type": "^1.0.0"
      }
    },
    "read-pkg-up": {
      "version": "1.0.1",
      "resolved": "https://registry.npmjs.org/read-pkg-up/-/read-pkg-up-1.0.1.tgz",
      "integrity": "sha1-nWPBMnbAZZGNV/ACpX9AobZD+wI=",
      "dev": true,
      "requires": {
        "find-up": "^1.0.0",
        "read-pkg": "^1.0.0"
      }
    },
    "readable-stream": {
      "version": "1.1.14",
      "resolved": "http://registry.npmjs.org/readable-stream/-/readable-stream-1.1.14.tgz",
      "integrity": "sha1-fPTFTvZI44EwhMY23SB54WbAgdk=",
      "dev": true,
      "requires": {
        "core-util-is": "~1.0.0",
        "inherits": "~2.0.1",
        "isarray": "0.0.1",
        "string_decoder": "~0.10.x"
      }
    },
    "redent": {
      "version": "1.0.0",
      "resolved": "https://registry.npmjs.org/redent/-/redent-1.0.0.tgz",
      "integrity": "sha1-z5Fqsf1fHxbfsggi3W7H9zDCr94=",
      "dev": true,
      "requires": {
        "indent-string": "^2.1.0",
        "strip-indent": "^1.0.1"
      }
    },
    "repeating": {
      "version": "2.0.1",
      "resolved": "https://registry.npmjs.org/repeating/-/repeating-2.0.1.tgz",
      "integrity": "sha1-UhTFOpJtNVJwdSf7q0FdvAjQbdo=",
      "dev": true,
      "requires": {
        "is-finite": "^1.0.0"
      }
    },
    "request": {
      "version": "2.88.0",
      "resolved": "https://registry.npmjs.org/request/-/request-2.88.0.tgz",
      "integrity": "sha512-NAqBSrijGLZdM0WZNsInLJpkJokL72XYjUpnB0iwsRgxh7dB6COrHnTBNwN0E+lHDAJzu7kLAkDeY08z2/A0hg==",
      "dev": true,
      "requires": {
        "aws-sign2": "~0.7.0",
        "aws4": "^1.8.0",
        "caseless": "~0.12.0",
        "combined-stream": "~1.0.6",
        "extend": "~3.0.2",
        "forever-agent": "~0.6.1",
        "form-data": "~2.3.2",
        "har-validator": "~5.1.0",
        "http-signature": "~1.2.0",
        "is-typedarray": "~1.0.0",
        "isstream": "~0.1.2",
        "json-stringify-safe": "~5.0.1",
        "mime-types": "~2.1.19",
        "oauth-sign": "~0.9.0",
        "performance-now": "^2.1.0",
        "qs": "~6.5.2",
        "safe-buffer": "^5.1.2",
        "tough-cookie": "~2.4.3",
        "tunnel-agent": "^0.6.0",
        "uuid": "^3.3.2"
      }
    },
    "rimraf": {
      "version": "2.4.5",
      "resolved": "http://registry.npmjs.org/rimraf/-/rimraf-2.4.5.tgz",
      "integrity": "sha1-7nEM5dk6j9uFb7Xqj/Di11k0sto=",
      "dev": true,
      "requires": {
        "glob": "^6.0.1"
      }
    },
    "safe-buffer": {
      "version": "5.1.2",
      "resolved": "https://registry.npmjs.org/safe-buffer/-/safe-buffer-5.1.2.tgz",
      "integrity": "sha512-Gd2UZBJDkXlY7GbJxfsE8/nvKkUEU1G38c1siN6QP6a9PT9MmHB8GnpscSmMJSoF8LOIrt8ud/wPtojys4G6+g==",
      "dev": true
    },
    "safer-buffer": {
      "version": "2.1.2",
      "resolved": "https://registry.npmjs.org/safer-buffer/-/safer-buffer-2.1.2.tgz",
      "integrity": "sha512-YZo3K82SD7Riyi0E1EQPojLz7kpepnSQI9IyPbHHg1XXXevb5dJI7tpyN2ADxGcQbHG7vcyRHk0cbwqcQriUtg==",
      "dev": true
    },
    "semver": {
      "version": "5.6.0",
      "resolved": "https://registry.npmjs.org/semver/-/semver-5.6.0.tgz",
      "integrity": "sha512-RS9R6R35NYgQn++fkDWaOmqGoj4Ek9gGs+DPxNUZKuwE183xjJroKvyo1IzVFeXvUrvmALy6FWD5xrdJT25gMg==",
      "dev": true
    },
    "signal-exit": {
      "version": "3.0.2",
      "resolved": "https://registry.npmjs.org/signal-exit/-/signal-exit-3.0.2.tgz",
      "integrity": "sha1-tf3AjxKH6hF4Yo5BXiUTK3NkbG0=",
      "dev": true
    },
    "single-line-log": {
      "version": "0.4.1",
      "resolved": "https://registry.npmjs.org/single-line-log/-/single-line-log-0.4.1.tgz",
      "integrity": "sha1-h6VWSfdJ14PsDc2AToFA2Yc8fO4=",
      "dev": true
    },
    "spdx-correct": {
      "version": "3.0.2",
      "resolved": "https://registry.npmjs.org/spdx-correct/-/spdx-correct-3.0.2.tgz",
      "integrity": "sha512-q9hedtzyXHr5S0A1vEPoK/7l8NpfkFYTq6iCY+Pno2ZbdZR6WexZFtqeVGkGxW3TEJMN914Z55EnAGMmenlIQQ==",
      "dev": true,
      "requires": {
        "spdx-expression-parse": "^3.0.0",
        "spdx-license-ids": "^3.0.0"
      }
    },
    "spdx-exceptions": {
      "version": "2.2.0",
      "resolved": "https://registry.npmjs.org/spdx-exceptions/-/spdx-exceptions-2.2.0.tgz",
      "integrity": "sha512-2XQACfElKi9SlVb1CYadKDXvoajPgBVPn/gOQLrTvHdElaVhr7ZEbqJaRnJLVNeaI4cMEAgVCeBMKF6MWRDCRA==",
      "dev": true
    },
    "spdx-expression-parse": {
      "version": "3.0.0",
      "resolved": "https://registry.npmjs.org/spdx-expression-parse/-/spdx-expression-parse-3.0.0.tgz",
      "integrity": "sha512-Yg6D3XpRD4kkOmTpdgbUiEJFKghJH03fiC1OPll5h/0sO6neh2jqRDVHOQ4o/LMea0tgCkbMgea5ip/e+MkWyg==",
      "dev": true,
      "requires": {
        "spdx-exceptions": "^2.1.0",
        "spdx-license-ids": "^3.0.0"
      }
    },
    "spdx-license-ids": {
      "version": "3.0.2",
      "resolved": "https://registry.npmjs.org/spdx-license-ids/-/spdx-license-ids-3.0.2.tgz",
      "integrity": "sha512-qky9CVt0lVIECkEsYbNILVnPvycuEBkXoMFLRWsREkomQLevYhtRKC+R91a5TOAQ3bCMjikRwhyaRqj1VYatYg==",
      "dev": true
    },
    "speedometer": {
      "version": "0.1.4",
      "resolved": "https://registry.npmjs.org/speedometer/-/speedometer-0.1.4.tgz",
      "integrity": "sha1-mHbb0qFp0xFUAtSObqYynIgWpQ0=",
      "dev": true
    },
    "sshpk": {
      "version": "1.15.2",
      "resolved": "https://registry.npmjs.org/sshpk/-/sshpk-1.15.2.tgz",
      "integrity": "sha512-Ra/OXQtuh0/enyl4ETZAfTaeksa6BXks5ZcjpSUNrjBr0DvrJKX+1fsKDPpT9TBXgHAFsa4510aNVgI8g/+SzA==",
      "dev": true,
      "requires": {
        "asn1": "~0.2.3",
        "assert-plus": "^1.0.0",
        "bcrypt-pbkdf": "^1.0.0",
        "dashdash": "^1.12.0",
        "ecc-jsbn": "~0.1.1",
        "getpass": "^0.1.1",
        "jsbn": "~0.1.0",
        "safer-buffer": "^2.0.2",
        "tweetnacl": "~0.14.0"
      }
    },
    "string_decoder": {
      "version": "0.10.31",
      "resolved": "https://registry.npmjs.org/string_decoder/-/string_decoder-0.10.31.tgz",
      "integrity": "sha1-YuIDvEF2bGwoyfyEMB2rHFMQ+pQ=",
      "dev": true
    },
    "strip-bom": {
      "version": "2.0.0",
      "resolved": "https://registry.npmjs.org/strip-bom/-/strip-bom-2.0.0.tgz",
      "integrity": "sha1-YhmoVhZSBJHzV4i9vxRHqZx+aw4=",
      "dev": true,
      "requires": {
        "is-utf8": "^0.2.0"
      }
    },
    "strip-indent": {
      "version": "1.0.1",
      "resolved": "https://registry.npmjs.org/strip-indent/-/strip-indent-1.0.1.tgz",
      "integrity": "sha1-DHlipq3vp7vUrDZkYKY4VSrhoKI=",
      "dev": true,
      "requires": {
        "get-stdin": "^4.0.1"
      }
    },
    "strip-json-comments": {
      "version": "2.0.1",
      "resolved": "https://registry.npmjs.org/strip-json-comments/-/strip-json-comments-2.0.1.tgz",
      "integrity": "sha1-PFMZQukIwml8DsNEhYwobHygpgo=",
      "dev": true
    },
    "throttleit": {
      "version": "0.0.2",
      "resolved": "https://registry.npmjs.org/throttleit/-/throttleit-0.0.2.tgz",
      "integrity": "sha1-z+34jmDADdlpe2H90qg0OptoDq8=",
      "dev": true
    },
    "through2": {
      "version": "0.2.3",
      "resolved": "http://registry.npmjs.org/through2/-/through2-0.2.3.tgz",
      "integrity": "sha1-6zKE2k6jEbbMis42U3SKUqvyWj8=",
      "dev": true,
      "requires": {
        "readable-stream": "~1.1.9",
        "xtend": "~2.1.1"
      }
    },
    "tough-cookie": {
      "version": "2.4.3",
      "resolved": "https://registry.npmjs.org/tough-cookie/-/tough-cookie-2.4.3.tgz",
      "integrity": "sha512-Q5srk/4vDM54WJsJio3XNn6K2sCG+CQ8G5Wz6bZhRZoAe/+TxjWB/GlFAnYEbkYVlON9FMk/fE3h2RLpPXo4lQ==",
      "dev": true,
      "requires": {
        "psl": "^1.1.24",
        "punycode": "^1.4.1"
      }
    },
    "trim-newlines": {
      "version": "1.0.0",
      "resolved": "https://registry.npmjs.org/trim-newlines/-/trim-newlines-1.0.0.tgz",
      "integrity": "sha1-WIeWa7WCpFA6QetST301ARgVphM=",
      "dev": true
    },
    "tunnel-agent": {
      "version": "0.6.0",
      "resolved": "https://registry.npmjs.org/tunnel-agent/-/tunnel-agent-0.6.0.tgz",
      "integrity": "sha1-J6XeoGs2sEoKmWZ3SykIaPD8QP0=",
      "dev": true,
      "requires": {
        "safe-buffer": "^5.0.1"
      }
    },
    "tweetnacl": {
      "version": "0.14.5",
      "resolved": "https://registry.npmjs.org/tweetnacl/-/tweetnacl-0.14.5.tgz",
      "integrity": "sha1-WuaBd/GS1EViadEIr6k/+HQ/T2Q=",
      "dev": true
    },
    "typedarray": {
      "version": "0.0.6",
      "resolved": "https://registry.npmjs.org/typedarray/-/typedarray-0.0.6.tgz",
      "integrity": "sha1-hnrHTjhkGHsdPUfZlqeOxciDB3c=",
      "dev": true
    },
    "util-deprecate": {
      "version": "1.0.2",
      "resolved": "https://registry.npmjs.org/util-deprecate/-/util-deprecate-1.0.2.tgz",
      "integrity": "sha1-RQ1Nyfpw3nMnYvvS1KKJgUGaDM8=",
      "dev": true
    },
    "uuid": {
      "version": "3.3.2",
      "resolved": "https://registry.npmjs.org/uuid/-/uuid-3.3.2.tgz",
      "integrity": "sha512-yXJmeNaw3DnnKAOKJE51sL/ZaYfWJRl1pK9dr19YFCu0ObS231AB1/LbqTKRAQ5kw8A90rA6fr4riOUpTZvQZA==",
      "dev": true
    },
    "validate-npm-package-license": {
      "version": "3.0.4",
      "resolved": "https://registry.npmjs.org/validate-npm-package-license/-/validate-npm-package-license-3.0.4.tgz",
      "integrity": "sha512-DpKm2Ui/xN7/HQKCtpZxoRWBhZ9Z0kqtygG8XCgNQ8ZlDnxuQmWhj566j8fN4Cu3/JmbhsDo7fcAJq4s9h27Ew==",
      "dev": true,
      "requires": {
        "spdx-correct": "^3.0.0",
        "spdx-expression-parse": "^3.0.0"
      }
    },
    "verror": {
      "version": "1.10.0",
      "resolved": "https://registry.npmjs.org/verror/-/verror-1.10.0.tgz",
      "integrity": "sha1-OhBcoXBTr1XW4nDB+CiGguGNpAA=",
      "dev": true,
      "requires": {
        "assert-plus": "^1.0.0",
        "core-util-is": "1.0.2",
        "extsprintf": "^1.2.0"
      }
    },
    "walk": {
      "version": "2.3.9",
      "resolved": "https://registry.npmjs.org/walk/-/walk-2.3.9.tgz",
      "integrity": "sha1-MbTbZnjyrgHDnqn7hyWpAx5Vins=",
      "requires": {
        "foreachasync": "^3.0.0"
      },
      "dependencies": {
        "foreachasync": {
          "version": "3.0.0",
          "resolved": "https://registry.npmjs.org/foreachasync/-/foreachasync-3.0.0.tgz",
          "integrity": "sha1-VQKYfchxS+M5IJfzLgBxyd7gfPY="
        }
      }
    },
    "wrappy": {
      "version": "1.0.2",
      "resolved": "https://registry.npmjs.org/wrappy/-/wrappy-1.0.2.tgz",
      "integrity": "sha1-tSQ9jz7BqjXxNkYFvA0QNuMKtp8=",
      "dev": true
    },
    "xtend": {
      "version": "2.1.2",
      "resolved": "https://registry.npmjs.org/xtend/-/xtend-2.1.2.tgz",
      "integrity": "sha1-bv7MKk2tjmlixJAbM3znuoe10os=",
      "dev": true,
      "requires": {
        "object-keys": "~0.4.0"
      }
    },
    "yauzl": {
      "version": "2.4.1",
      "resolved": "https://registry.npmjs.org/yauzl/-/yauzl-2.4.1.tgz",
      "integrity": "sha1-lSj0QtqxsihOWLQ3m7GU4i4MQAU=",
      "dev": true,
      "requires": {
        "fd-slicer": "~1.0.1"
      }
    }
  }
}
